type,start_date,end_date,evacuated,homeless,injuries,deaths,insured_cost,trains_damaged,trains_destroyed,homes_damaged,homes_destroyed,buildings_damaged,buildings_destroyed,ind_premises_destroyed,com_premises_damaged,com_premises_destroyed,bridges_damaged,bridges_destroyed,aircraft_damaged,aircraft_destroyed,motor_vechicles_damaged,motor_vechicles_destroyed,water_vessels_damaged,water_vessels_destroyed,businesses_damaged,businesses_destroyed,farms_destroyed,farms_destroyed,crops_destroyed,livestock_destroyed,government_assistance,region,year
Environmental,01/01/1939,16/01/1939,0,0,0,400,0,0,0,0,0,0,0,0,0,0,0,0,0,0,0,0,0,0,0,0,0,0,0,0,0,Victoria;New South Wales;South Australia,1939
Industrial,13/06/1989,13/06/1989,0,0,0,6,0,0,0,0,0,0,0,0,0,0,0,0,0,0,0,0,0,0,0,0,0,0,0,0,0,Western Australia,1989
Industrial,24/07/1979,24/07/1979,0,0,0,14,0,0,0,0,0,0,0,0,0,0,0,0,0,0,0,0,0,0,0,0,0,0,0,0,0,New South Wales,1979
Transport,18/01/1977,18/01/1977,0,0,210,83,0,1,0,0,0,0,0,0,0,0,0,1,0,0,0,0,0,0,0,0,0,0,0,0,0,New South Wales,1977
Bushfire,13/01/1939,14/01/1939,0,0,0,6,0,0,0,0,0,0,0,0,0,0,0,0,0,0,0,0,0,0,0,0,0,0,0,0,0,New South Wales,1939
Urban Fire,08/04/1996,08/04/1996,0,36,0,9,0,0,0,0,0,0,0,0,0,0,0,0,0,0,0,0,0,0,0,0,0,0,0,0,0,Victoria,1996
Bushfire,05/04/1958,06/04/1958,0,0,3,8,0,0,0,0,0,0,0,0,0,0,0,0,0,0,0,0,0,0,0,0,0,0,0,0,0,South Australia,1958
Shipwreck,24/10/1829,24/10/1829,0,0,0,11,0,0,0,0,0,0,0,0,0,0,0,0,0,0,0,0,0,1,0,0,0,0,0,0,0,New South Wales,1829
Transport,28/04/2006,28/04/2006,0,0,18,2,0,0,0,0,0,0,0,0,0,0,0,0,0,0,0,0,0,0,0,0,0,0,0,0,0,Victoria,2006
Industrial,09/05/2006,09/05/2006,0,0,2,3,0,0,0,0,0,0,0,0,0,0,0,0,0,0,0,0,0,0,0,0,0,0,0,0,0,South Australia,2006
Transport,07/03/2007,07/03/2007,0,0,12,21,0,0,0,0,0,0,0,0,0,0,0,0,0,1,0,0,0,0,0,0,0,0,0,0,0,Outside Australia,2007
Cyclone,03/03/2007,08/03/2007,0,0,20,3,8000000,0,0,0,0,0,0,0,0,0,0,0,0,0,0,0,0,0,0,0,0,0,0,0,0,Western Australia,2007
Transport,28/03/2007,28/03/2007,0,0,8,4,0,0,0,0,0,0,0,0,0,0,0,0,0,0,0,0,0,2,0,0,0,0,0,0,0,New South Wales,2007
Hail,31/10/2006,31/10/2006,0,0,0,0,51000000,0,0,0,0,0,0,0,0,0,0,0,0,0,10000,0,0,0,0,0,0,0,0,0,0,New South Wales,2006
Transport,23/03/2007,23/03/2007,247,0,2,3,0,0,0,0,0,0,0,0,0,0,0,0,0,0,0,0,0,0,0,0,0,0,0,0,0,Victoria,2007
Transport,05/06/2007,05/06/2007,0,0,14,11,0,0,0,0,0,0,0,0,0,0,0,0,0,0,0,0,0,0,0,0,0,0,0,0,0,Victoria,2007
Severe Storm,08/06/2007,10/06/2007,6000,0,0,9,1480000000,0,0,0,0,0,0,0,0,0,0,0,0,0,0,0,0,1,0,0,0,0,0,0,0,New South Wales,2007
Flood,27/06/2007,07/02/2007,0,0,0,1,15000000,0,0,0,0,0,0,0,0,0,0,0,0,0,0,0,0,0,0,0,0,0,0,0,0,Victoria,2007
Industrial,31/07/1902,31/07/1902,0,0,0,96,0,0,0,0,0,0,0,0,0,0,0,0,0,0,0,0,0,0,0,0,0,0,0,0,0,New South Wales,1902
Shipwreck,22/04/1887,22/04/1887,0,0,0,140,0,0,0,0,0,0,0,0,0,0,0,0,0,0,0,0,0,22,0,0,0,0,0,0,0,Western Australia,1887
Urban Fire,22/09/2007,22/09/2007,0,0,0,0,50000000,0,0,0,0,0,1,0,0,0,0,0,0,0,0,0,0,0,0,0,0,0,0,0,0,Tasmania,2007
Bushfire,01/12/2006,02/07/2007,0,0,1400,1,0,0,0,0,51,0,0,0,0,0,0,0,0,0,0,0,0,0,0,0,0,0,0,0,0,Victoria,2006
Hail,08/10/2007,09/10/2007,0,0,17,0,97000000,0,0,0,0,0,0,0,0,0,0,0,0,0,0,0,0,0,0,0,0,0,0,0,0,New South Wales,2007
Severe Storm,07/10/2007,12/10/2007,0,0,0,0,97000000,0,0,0,0,0,0,0,0,0,0,0,0,0,0,0,0,0,0,0,0,0,0,0,0,Queensland,2007
Chemical,23/03/2004,23/03/2004,0,0,28,0,0,0,0,0,0,0,0,0,0,0,0,0,0,0,0,0,0,0,0,0,0,0,0,0,0,Northern Territory,2004
Urban Fire,22/08/2004,22/08/2004,0,0,0,0,25000000,0,0,0,0,0,0,0,0,0,0,0,0,0,0,0,0,0,0,0,0,0,0,0,0,South Australia,2004
Chemical,29/10/2004,29/10/2004,400,0,28,0,0,0,0,0,0,0,0,0,0,0,0,0,0,0,0,0,0,0,0,0,0,0,0,0,0,Victoria,2004
Hail,21/01/1986,21/01/1986,0,0,0,0,25000000,0,0,0,0,0,0,0,0,0,0,0,0,0,100,0,0,0,0,0,0,0,0,0,0,New South Wales,1986
Cyclone,06/03/1997,24/03/1997,0,0,20,2,0,0,0,0,0,0,0,0,0,0,0,0,0,0,0,0,0,0,0,0,0,0,0,0,0,Queensland,1997
Transport,03/11/1927,03/11/1927,0,0,0,40,0,0,0,0,0,0,0,0,0,0,0,0,0,0,0,0,1,1,0,0,0,0,0,0,0,New South Wales,1927
Cyclone,20/01/1918,22/01/1918,0,0,0,30,0,0,0,0,0,1400,0,0,0,0,0,0,0,0,0,0,0,0,0,0,0,0,0,0,0,Queensland,1918
Severe Storm,23/06/1998,24/06/1998,0,0,0,1,12000000,0,0,0,0,0,0,0,0,0,0,0,0,0,0,0,0,0,0,0,0,0,0,0,0,New South Wales,1998
Complex Emergencies,04/06/1942,04/06/1942,0,0,5,37,0,0,0,0,0,0,0,0,0,0,0,0,0,0,0,0,0,1,0,0,0,0,0,0,0,Victoria,1942
Hail,18/03/1990,18/03/1990,0,100,25,0,319000000,0,0,0,0,1400,0,0,0,0,0,0,0,0,9000,0,0,0,0,0,0,0,0,0,0,New South Wales,1990
Severe Storm,25/01/1937,25/01/1937,0,0,0,4,0,0,0,0,0,0,0,0,0,0,0,0,0,0,0,0,0,0,0,0,0,0,0,0,0,New South Wales,1937
Bushfire,19/01/1997,21/01/1997,800,0,40,3,29000000,0,0,45,43,0,0,0,0,0,0,0,0,0,0,0,0,0,0,0,0,0,0,0,0,Victoria,1997
Shipwreck,28/05/1853,28/05/1853,0,0,0,5,0,0,0,0,0,0,0,0,0,0,0,0,0,0,0,0,0,1,0,0,0,0,0,0,0,Victoria,1853
Shipwreck,01/09/1847,01/09/1847,0,0,0,5,0,0,0,0,0,0,0,0,0,0,0,0,0,0,0,0,0,1,0,0,0,0,0,0,0,Queensland,1847
Shipwreck,18/04/1860,18/04/1860,0,0,0,10,0,0,0,0,0,0,0,0,0,0,0,0,0,0,0,0,0,1,0,0,0,0,0,0,0,Victoria,1860
Transport,06/05/1990,06/05/1990,0,0,93,6,0,0,2,0,0,0,0,0,0,0,0,0,0,0,0,0,0,0,0,0,0,0,0,0,0,New South Wales,1990
Cyclone,27/01/1986,02/05/1986,0,0,0,3,40000000,0,0,0,0,1500,0,0,0,0,0,0,0,0,0,0,0,12,0,0,0,0,0,0,0,Queensland,1986
Cyclone,04/03/1899,10/03/1899,0,0,0,400,0,0,0,0,0,0,0,0,0,0,0,0,0,0,0,0,0,55,0,0,0,0,0,0,0,Queensland,1899
Epidemic,25/03/2002,25/03/2002,0,0,272,0,0,0,0,0,0,0,0,0,0,0,0,0,0,0,0,0,0,0,0,0,0,0,0,0,0,Victoria,2002
Transport,13/08/1989,13/08/1989,0,0,0,13,0,0,0,0,0,0,0,0,0,0,0,0,0,0,0,0,0,0,0,0,0,0,0,0,0,Northern Territory,1989
Shipwreck,26/12/1935,26/12/1935,0,0,0,31,0,0,0,0,0,0,0,0,0,0,0,0,0,0,0,0,0,1,0,0,0,0,0,0,0,Victoria,1935
Cyclone,04/02/1967,04/04/1967,0,0,0,6,0,0,0,0,0,0,0,0,0,0,0,0,0,0,0,0,0,0,0,0,0,0,0,0,0,Queensland,1967
Shipwreck,18/03/1846,18/03/1846,0,0,0,21,0,0,0,0,0,0,0,0,0,0,0,0,0,0,0,0,0,1,0,0,0,0,0,0,0,Queensland,1846
Severe Storm,10/02/1978,11/02/1978,0,0,8,0,15000000,0,0,0,0,0,0,0,0,0,0,0,0,0,0,0,0,0,0,0,0,0,0,0,0,New South Wales,1978
Shipwreck,19/11/1941,19/11/1941,0,0,0,645,0,0,0,0,0,0,0,0,0,0,0,0,0,0,0,0,0,1,0,0,0,0,0,0,0,Outside Australia,1941
Flood,21/04/1990,30/04/1990,0,5000,0,6,30000000,0,0,0,0,0,0,0,0,0,0,0,0,0,0,0,0,0,0,0,0,0,0,0,0,New South Wales;Victoria;Queensland,1990
Shipwreck,14/06/1876,14/06/1876,0,0,0,30,0,0,0,0,0,0,0,0,0,0,0,0,0,0,0,0,0,1,0,0,0,0,0,0,0,South Australia,1876
Transport,02/10/1989,02/10/1989,0,0,78,0,0,0,0,0,0,0,0,0,0,0,0,0,0,0,0,0,0,0,0,0,0,0,0,0,0,South Australia,1989
Complex Emergencies,19/02/1942,19/02/1942,0,0,400,243,0,0,0,0,0,0,0,0,0,0,0,0,0,29,0,0,15,10,0,0,0,0,0,0,0,Northern Territory,1942
Transport,13/01/1996,13/01/1996,0,0,1,2,0,0,0,0,0,0,0,0,0,0,0,0,0,0,0,0,0,0,0,0,0,0,0,0,0,Western Australia,1996
Shipwreck,01/04/1848,01/04/1848,0,0,0,3,0,0,0,0,0,0,0,0,0,0,0,0,0,0,0,0,0,1,0,0,0,0,0,0,0,Tasmania,1848
Shipwreck,20/11/1940,20/11/1940,0,0,0,24,0,0,0,0,0,0,0,0,0,0,0,0,0,0,0,0,1,1,0,0,0,0,0,0,0,Victoria,1940
Shipwreck,09/08/1972,09/08/1972,0,0,0,5,0,0,0,0,0,0,0,0,0,0,0,0,0,0,0,0,0,1,0,0,0,0,0,0,0,Victoria,1972
Earthquake,28/12/1989,29/12/1989,0,0,160,13,862000000,0,0,40000,0,50000,0,0,0,0,0,0,0,0,0,0,0,0,0,0,0,0,0,0,0,New South Wales,1989
Severe Storm,05/01/1998,05/01/1998,0,0,1,0,12000000,0,0,77,4,0,0,0,0,0,0,0,0,0,0,0,0,0,0,0,0,0,0,0,0,New South Wales,1998
Environmental,12/09/1909,02/10/1910,0,0,0,109,0,0,0,0,0,0,0,0,0,0,0,0,0,0,0,0,0,0,0,0,0,0,0,0,0,Queensland;New South Wales;Tasmania;Australian Capital Territory;Northern Territory;South Australia;Western Australia;Victoria,1909
Cyclone,05/03/1887,05/03/1887,0,0,0,7,0,0,0,0,0,0,0,0,0,0,0,0,0,0,0,0,0,0,0,0,0,0,0,0,0,Queensland,1887
Industrial,02/01/1945,02/01/1945,0,0,0,4,0,0,0,0,0,0,0,0,0,0,0,0,0,0,0,0,0,0,0,0,0,0,0,0,0,Queensland,1945
Bushfire,27/12/1993,16/01/1994,0,0,0,4,59000000,0,0,0,206,0,0,0,0,0,0,0,0,0,0,0,0,0,0,0,0,0,0,0,0,New South Wales,1993
Shipwreck,21/07/1874,21/07/1874,0,0,1,3,0,0,0,0,0,0,0,0,0,0,0,0,0,0,0,0,0,1,0,0,0,0,0,0,0,South Australia,1874
Shipwreck,19/10/1887,19/10/1887,0,0,24,35,0,0,0,0,0,0,0,0,0,0,0,0,0,0,0,0,0,1,0,0,0,0,0,0,0,Victoria,1887
Flood,24/04/1974,24/04/1974,0,0,0,1,20000000,0,0,0,0,0,0,0,0,0,0,0,0,0,0,0,0,0,0,0,0,0,0,0,0,New South Wales,1974
Flood,20/02/1929,28/02/1929,100,0,0,3,0,0,0,0,0,0,0,0,0,0,0,0,0,0,0,0,0,0,0,0,0,0,0,0,0,Queensland,1929
Bushfire,14/01/1962,16/02/1962,0,2500,0,8,0,0,0,0,454,0,0,0,0,0,0,0,0,0,0,0,0,0,0,0,0,0,0,0,0,Victoria,1962
Severe Storm,16/11/1989,16/11/1989,0,0,0,0,20000000,0,0,0,0,0,0,0,0,0,0,0,0,0,0,0,0,0,0,0,0,0,0,0,0,Victoria,1989
Flood,10/02/1978,10/02/1978,0,0,0,6,15000000,0,0,0,0,0,0,0,0,0,0,0,0,0,0,0,0,0,0,0,0,0,0,0,0,New South Wales,1978
Shipwreck,08/05/1891,08/05/1891,0,0,0,6,0,0,0,0,0,0,0,0,0,0,0,0,0,0,0,0,0,0,0,0,0,0,0,0,0,Victoria,1891
Chemical,17/08/1987,17/08/1987,0,0,27,1,0,0,0,0,0,0,0,0,0,0,0,0,0,0,0,0,0,0,0,0,0,0,0,0,0,Queensland,1987
Shipwreck,14/10/1841,14/10/1841,0,0,0,12,0,0,0,0,0,0,0,0,0,0,0,0,0,0,0,0,0,1,0,0,0,0,0,0,0,New South Wales,1841
Flood,01/05/1996,09/05/1996,0,0,20,5,31000000,0,0,0,0,0,0,0,0,0,0,0,0,0,0,0,0,0,0,0,0,0,0,0,0,New South Wales;Queensland,1996
Flood,25/06/1852,25/06/1852,0,160,0,89,0,0,0,0,0,0,0,0,0,0,0,0,0,0,0,0,0,0,0,0,0,0,0,0,0,New South Wales,1852
Chemical,18/11/2001,18/11/2001,0,0,0,8,0,0,0,0,0,0,0,0,0,0,0,0,0,0,0,0,1,0,0,0,0,0,0,0,0,Western Australia,2001
Criminal Act,13/02/1978,13/02/1978,0,0,0,3,0,0,0,0,0,0,0,0,0,0,0,0,0,0,0,0,0,0,0,0,0,0,0,0,0,New South Wales,1978
Transport,28/01/1908,28/01/1908,0,0,40,0,0,0,0,0,0,0,0,0,0,0,0,0,0,0,0,0,0,0,0,0,0,0,0,0,0,Victoria,1908
Transport,18/07/1910,18/07/1910,0,0,114,9,0,0,2,0,0,0,0,0,0,0,0,0,0,0,0,0,0,0,0,0,0,0,0,0,0,Victoria,1910
Transport,23/08/1963,23/08/1963,0,0,22,0,0,4,2,0,0,0,0,0,0,0,0,0,0,0,0,0,0,0,0,0,0,0,0,0,0,New South Wales,1963
Earthquake,10/05/1897,10/05/1897,0,0,50,0,0,0,0,0,0,0,0,0,0,0,0,0,0,0,0,0,0,0,0,0,0,0,0,0,0,South Australia,1897
Shipwreck,03/09/1880,03/09/1880,0,0,0,4,0,0,0,0,0,0,0,0,0,0,0,0,0,0,0,0,0,1,0,0,0,0,0,0,0,Victoria,1880
Transport,25/10/1938,25/10/1938,0,0,0,18,0,0,0,0,0,0,0,0,0,0,0,0,0,1,0,0,0,0,0,0,0,0,0,0,0,Victoria,1938
Transport,30/05/1949,30/05/1949,0,0,33,4,0,0,0,0,0,0,0,0,0,0,0,0,0,0,1,0,0,0,0,0,0,0,0,0,0,New South Wales,1949
Shipwreck,30/05/1886,30/05/1886,0,0,16,71,0,0,0,0,0,0,0,0,0,0,0,0,0,0,0,0,0,1,0,0,0,0,0,0,0,New South Wales,1886
Shipwreck,08/04/1924,08/04/1924,0,0,0,6,0,0,0,0,0,0,0,0,0,0,0,0,0,0,0,0,0,1,0,0,0,0,0,0,0,Victoria,1924
Bushfire,12/01/1974,02/01/1975,0,0,0,3,0,0,0,0,0,0,0,0,0,0,0,0,0,0,0,0,0,0,0,0,0,0,0,50000,0,New South Wales,1974
Severe Storm,15/01/2001,15/01/2001,0,0,0,0,12000000,0,0,0,0,0,0,0,0,0,0,0,0,0,0,0,0,0,0,0,0,0,0,0,0,New South Wales,2001
Shipwreck,23/12/1837,23/12/1837,0,0,0,3,0,0,0,0,0,0,0,0,0,0,0,0,0,0,0,0,1,0,0,0,0,0,0,0,0,New South Wales,1837
Shipwreck,11/09/1876,12/09/1876,0,0,0,44,0,0,0,0,0,0,0,0,0,0,0,0,0,0,0,0,0,1,0,0,0,0,0,0,0,New South Wales,1876
Flood,07/02/1991,11/02/1991,0,0,10,3,0,0,0,0,0,0,0,0,0,0,0,0,0,0,0,0,0,0,0,0,0,0,0,0,0,Queensland,1991
Shipwreck,29/03/1923,29/03/1923,0,0,0,20,0,0,0,0,0,0,0,0,0,0,0,0,0,0,0,0,0,1,0,0,0,0,0,0,0,Outside Australia,1923
Hail,03/11/1995,06/11/1995,0,0,0,1,40000000,0,0,300,0,0,0,0,0,0,0,0,0,0,0,0,0,0,0,0,0,0,0,0,0,Queensland,1995
Shipwreck,02/08/1863,02/08/1863,0,0,0,6,0,0,0,0,0,0,0,0,0,0,0,0,0,0,0,0,0,2,0,0,0,0,0,0,0,Victoria,1863
Environmental,01/04/1982,03/01/1983,0,0,0,0,3000000000,0,0,0,0,0,0,0,0,0,0,0,0,0,0,0,0,0,0,0,0,0,0,0,0,Tasmania;Queensland;New South Wales;Australian Capital Territory;Northern Territory;South Australia;Western Australia;Victoria,1982
Shipwreck,21/03/1852,21/03/1852,0,0,0,9,0,0,0,0,0,0,0,0,0,0,0,0,0,0,0,0,0,1,0,0,0,0,0,0,0,Victoria,1852
Epidemic,01/01/1918,31/12/1919,0,0,0,10000,0,0,0,0,0,0,0,0,0,0,0,0,0,0,0,0,0,0,0,0,0,0,0,0,0,Australian Capital Territory;Northern Territory;Queensland;New South Wales;South Australia;Western Australia;Tasmania;Victoria,1918
Urban Fire,27/10/1948,27/10/1948,0,0,0,5,0,0,0,0,0,0,0,0,0,0,0,0,0,0,0,0,0,0,0,0,0,0,0,0,0,South Australia,1948
Shipwreck,17/05/1866,17/05/1866,0,0,1,9,0,0,0,0,0,0,0,0,0,0,0,0,0,0,0,0,0,1,0,0,0,0,0,0,0,Victoria,1866
Flood,08/02/1860,13/02/1860,0,0,0,24,0,0,0,0,0,0,0,0,0,0,0,0,0,0,0,0,0,0,0,0,0,0,0,0,0,New South Wales,1860
Transport,20/01/1944,20/01/1944,0,0,5,17,0,1,0,0,0,0,0,0,0,0,0,0,0,0,0,1,0,0,0,0,0,0,0,0,0,New South Wales,1944
Environmental,01/01/1918,01/02/1920,0,0,0,0,0,0,0,0,0,0,0,0,0,0,0,0,0,0,0,0,0,0,0,0,0,0,0,0,0,Northern Territory;Queensland;New South Wales;Australian Capital Territory;South Australia;Western Australia;Tasmania;Victoria,1918
Bushfire,01/01/1952,03/01/1952,0,0,0,10,0,0,0,0,0,0,0,0,0,0,0,0,0,0,0,0,0,0,0,0,0,0,0,0,0,Victoria,1952
Criminal Act,08/03/1973,08/03/1973,0,0,0,15,0,0,0,0,0,0,0,0,0,0,0,0,0,0,0,0,0,0,0,0,0,0,0,0,0,Queensland,1973
Cyclone,31/12/1993,25/01/1994,0,0,0,4,0,0,0,100,0,0,0,0,0,0,0,0,0,0,0,0,0,0,0,0,0,0,0,0,0,Queensland,1993
Transport,01/02/1976,01/02/1976,0,0,0,5,0,0,0,0,0,0,0,0,0,0,0,0,0,2,0,0,0,0,0,0,0,0,0,0,0,South Australia,1976
Flood,30/11/1934,02/12/1934,0,0,0,36,0,0,0,0,400,0,0,0,0,0,0,0,0,0,0,0,0,0,0,0,0,0,0,0,0,Victoria,1934
Transport,01/06/1952,01/06/1952,0,0,0,9,0,0,0,0,0,0,0,0,0,0,0,0,0,0,0,0,0,0,0,0,0,0,0,0,0,Victoria,1952
Shipwreck,06/02/1945,06/02/1945,0,0,0,32,0,0,0,0,0,0,0,0,0,0,0,0,0,0,0,0,0,1,0,0,0,0,0,0,0,Western Australia,1945
Transport,25/01/1972,25/01/1972,0,0,0,4,0,0,0,0,0,0,0,0,0,0,0,0,0,1,0,0,0,0,0,0,0,0,0,0,0,South Australia,1972
Shipwreck,18/06/1909,07/12/1909,0,0,0,17,0,0,0,0,0,0,0,0,0,0,0,0,0,0,0,0,0,1,0,0,0,0,0,0,0,New South Wales,1909
Transport,25/01/1885,25/01/1885,0,0,20,7,0,0,0,0,0,0,0,0,0,0,0,0,0,0,0,0,0,0,0,0,0,0,0,0,0,New South Wales,1885
Shipwreck,01/05/1857,01/05/1857,0,0,0,16,0,0,0,0,0,0,0,0,0,0,0,0,0,0,0,0,0,1,0,0,0,0,0,0,0,Queensland,1857
Flood,25/01/1974,04/01/1974,0,0,0,14,68000000,0,0,0,0,0,0,0,0,0,0,0,0,0,0,0,0,0,0,0,0,0,0,0,0,Tasmania;Queensland;New South Wales;South Australia;Victoria,1974
Chemical,15/02/2001,17/02/2001,100,0,130,0,0,0,0,0,0,0,0,0,0,1,0,0,0,0,0,0,0,0,0,0,0,0,0,0,0,Western Australia,2001
Flood,26/12/1999,28/12/1999,0,100,0,0,10000000,0,0,0,0,0,0,0,0,0,0,0,0,0,0,0,0,0,0,0,0,0,0,0,0,Victoria,1999
Severe Storm,31/08/1996,31/08/1996,0,0,0,0,10000000,0,0,0,0,0,0,0,0,0,0,0,0,0,0,0,0,0,0,0,0,0,0,0,0,New South Wales,1996
Industrial,15/02/1937,15/02/1937,0,0,0,13,0,0,0,0,0,0,0,0,0,0,0,0,0,0,0,0,0,0,0,0,0,0,0,0,0,Victoria,1937
Transport,01/02/2001,01/02/2001,0,0,35,1,0,0,0,0,0,0,0,0,0,0,0,0,0,0,1,2,0,0,0,0,0,0,0,0,0,New South Wales,2001
Transport,13/03/1974,13/03/1974,0,0,0,4,0,0,0,0,0,0,0,0,0,0,0,0,0,2,0,0,0,0,0,0,0,0,0,0,0,New South Wales,1974
Flood,23/12/1990,01/07/1991,0,0,0,6,32000000,0,0,0,0,0,0,0,0,0,0,0,0,0,0,0,0,0,0,0,0,0,0,0,0,Queensland,1990
Bushfire,29/09/1917,29/09/1917,0,0,0,3,0,0,0,0,0,0,0,0,0,0,0,0,0,0,0,0,0,0,0,0,0,0,0,0,0,Queensland,1917
Industrial,13/11/1901,13/11/1901,0,0,0,3,0,0,0,0,0,0,0,0,0,0,0,0,0,0,0,0,0,0,0,0,0,0,0,0,0,New South Wales,1901
Bushfire,01/01/1906,15/02/1906,0,0,0,12,0,0,0,0,0,0,0,0,0,0,0,0,0,0,0,0,0,0,0,0,0,0,0,0,0,Victoria,1906
Shipwreck,12/07/1866,12/07/1866,0,0,0,62,0,0,0,0,0,0,0,0,0,0,0,0,0,0,0,0,0,1,0,0,0,0,0,0,0,New South Wales,1866
Flood,02/05/2000,28/02/2000,0,0,10,0,12000000,0,0,0,0,0,0,0,0,0,0,0,0,0,0,0,0,0,0,0,0,0,0,0,0,Queensland,2000
Cyclone,24/12/1971,27/12/1971,0,0,25,3,25000000,0,0,1000,0,0,0,0,0,0,0,0,0,0,0,0,0,0,0,0,0,0,0,0,0,Queensland,1971
Bushfire,26/10/1951,31/01/1952,0,0,0,13,0,0,0,0,0,0,0,0,0,0,0,0,0,0,0,0,0,0,0,0,0,0,0,10000,0,New South Wales,1951
Severe Storm,12/03/1934,13/03/1934,0,0,0,75,0,0,0,0,0,0,0,0,0,0,0,0,0,0,0,0,0,0,0,0,0,0,0,0,0,Queensland,1934
Bushfire,16/02/1983,18/02/1983,0,9000,1500,75,176000000,0,0,0,2000,0,0,0,0,0,0,0,0,0,0,0,0,0,0,0,0,0,0,30000,0,Victoria;South Australia,1983
Flood,04/07/1940,04/09/1940,0,0,0,3,0,0,0,0,0,0,0,0,0,0,0,0,0,0,0,0,0,0,0,0,0,0,0,0,0,Queensland,1940
Flood,25/04/1989,30/04/1989,0,0,0,3,0,0,0,0,0,0,0,0,0,0,0,0,0,0,0,0,0,0,0,0,0,0,0,0,0,Queensland,1989
Flood,28/07/1857,29/07/1857,0,0,0,26,0,0,0,0,0,0,0,0,0,0,0,0,0,0,0,0,0,0,0,0,0,0,0,0,0,New South Wales,1857
Industrial,01/10/1961,01/10/1961,0,0,0,3,0,0,0,0,0,0,0,0,0,0,0,0,0,0,0,0,0,0,0,0,0,0,0,0,0,Victoria,1961
Severe Storm,03/12/2001,03/12/2001,0,0,0,2,30000000,0,0,0,0,0,0,0,0,0,0,0,0,0,0,0,0,0,0,0,0,0,0,0,0,New South Wales,2001
Shipwreck,06/10/1864,06/10/1864,0,0,4,4,0,0,0,0,0,0,0,0,0,0,0,0,0,0,0,0,0,1,0,0,0,0,0,0,0,Victoria,1864
Shipwreck,29/01/1937,29/01/1937,0,0,0,5,0,0,0,0,0,0,0,0,0,0,0,0,0,0,0,0,0,1,0,0,0,0,0,0,0,Victoria,1937
Criminal Act,09/08/1987,09/08/1987,0,0,19,7,0,0,0,0,0,0,0,0,0,0,0,0,0,0,0,0,0,0,0,0,0,0,0,0,0,Victoria,1987
Bushfire,08/01/1969,09/01/1969,0,800,100,23,0,0,0,0,230,0,21,0,0,0,0,0,0,0,0,0,0,0,0,0,0,0,0,0,0,Victoria,1969
Shipwreck,12/10/1973,12/10/1973,0,0,0,3,0,0,0,0,0,0,0,0,0,0,0,0,0,0,0,0,0,1,0,0,0,0,0,0,0,Tasmania,1973
Flood,26/02/1854,22/03/1854,0,0,0,0,0,0,0,0,0,0,0,0,0,0,0,0,0,0,0,0,0,0,0,0,0,0,0,0,0,Tasmania,1854
Shipwreck,08/12/1863,08/12/1863,0,0,0,4,0,0,0,0,0,0,0,0,0,0,0,0,0,0,0,0,0,1,0,0,0,0,0,0,0,South Australia,1863
Transport,02/12/1999,02/12/1999,0,0,51,7,0,0,0,0,0,0,0,0,0,0,0,0,0,0,0,0,0,0,0,0,0,0,0,0,0,New South Wales,1999
Industrial,21/10/1966,21/10/1966,0,0,0,5,0,0,0,0,0,0,0,0,0,0,0,0,0,0,0,0,0,0,0,0,0,0,0,0,0,New South Wales,1966
Transport,15/05/1984,15/05/1984,0,0,0,4,0,0,0,2,0,0,0,0,0,0,0,0,0,1,0,0,0,0,0,0,0,0,0,0,0,New South Wales,1984
Transport,13/03/1996,13/03/1996,0,0,0,4,0,0,0,0,0,0,0,0,0,0,0,0,0,1,0,0,0,0,0,0,0,0,0,0,0,Western Australia,1996
Shipwreck,21/03/1876,21/03/1876,0,0,0,7,0,0,0,0,0,0,0,0,0,0,0,0,0,0,0,0,0,1,0,0,0,0,0,0,0,Queensland,1876
Shipwreck,01/02/1858,01/02/1858,0,0,0,50,0,0,0,0,0,0,0,0,0,0,0,0,0,0,0,0,0,1,0,0,0,0,0,0,0,Victoria,1858
Severe Storm,07/08/1999,11/08/1999,0,0,0,4,0,0,0,0,0,0,0,0,0,0,0,0,0,0,0,0,0,0,0,0,0,0,0,0,0,New South Wales,1999
Bushfire,15/10/1968,12/03/1968,0,0,0,14,0,0,0,0,0,0,0,0,0,0,0,0,0,0,0,0,0,0,0,0,0,0,0,0,0,New South Wales,1968
Environmental,01/10/1996,30/09/2000,0,0,0,0,0,0,0,0,0,0,0,0,0,0,0,0,0,0,0,0,0,0,0,0,0,0,0,0,0,Tasmania;Victoria;South Australia,1996
Shipwreck,08/09/1870,08/09/1870,0,0,1,7,0,0,0,0,0,0,0,0,0,0,0,0,0,0,0,0,0,1,0,0,0,0,0,0,0,Victoria,1870
Bushfire,07/02/1967,07/02/1967,0,0,0,62,14000000,0,0,0,1400,0,0,0,0,0,0,0,0,0,0,0,0,0,0,0,0,0,0,20000,0,Tasmania,1967
Transport,22/12/1989,22/12/1989,0,0,41,35,0,0,0,0,0,0,0,0,0,0,0,0,0,0,0,2,0,0,0,0,0,0,0,0,0,New South Wales,1989
Flood,01/01/1860,01/01/1860,0,0,0,16,0,0,0,0,0,0,0,0,0,0,0,0,0,0,0,0,0,0,0,0,0,0,0,0,0,New South Wales,1860
Environmental,01/01/1913,31/12/1915,0,0,0,0,0,0,0,0,0,0,0,0,0,0,0,0,0,0,0,0,0,0,0,0,0,0,0,0,0,Northern Territory;Queensland;New South Wales;Australian Capital Territory;South Australia;Western Australia;Tasmania;Victoria,1913
Shipwreck,09/09/1876,09/09/1876,0,0,2,7,0,0,0,0,0,0,0,0,0,0,0,0,0,0,0,0,0,1,0,0,0,0,0,0,0,Victoria,1876
Transport,05/02/1910,05/02/1910,0,0,1,3,0,0,2,0,0,0,0,0,0,0,0,0,0,0,0,0,0,0,0,0,0,0,0,0,0,Victoria,1910
Shipwreck,13/10/1857,13/10/1857,0,0,0,4,0,0,0,0,0,0,0,0,0,0,0,0,0,0,0,0,0,1,0,0,0,0,0,0,0,Victoria,1857
Transport,07/02/1969,07/02/1969,0,0,40,9,0,0,8,0,0,0,0,0,0,0,0,0,0,0,0,0,0,0,0,0,0,0,0,0,0,Victoria,1969
Shipwreck,20/08/1857,20/08/1857,0,0,0,121,0,0,0,0,0,0,0,0,0,0,0,0,0,0,0,0,0,1,0,0,0,0,0,0,0,New South Wales,1857
Shipwreck,01/08/1826,01/08/1826,0,0,0,3,0,0,0,0,0,0,0,0,0,0,0,0,0,0,0,0,0,1,0,0,0,0,0,0,0,New South Wales,1826
Shipwreck,24/06/1933,24/06/1933,0,0,0,18,0,0,0,0,0,0,0,0,0,0,0,0,0,0,0,0,0,1,0,0,0,0,0,0,0,Victoria,1933
Shipwreck,24/12/1875,24/12/1875,0,0,0,57,0,0,0,0,0,0,0,0,0,0,0,0,0,0,0,0,0,3,0,0,0,0,0,0,0,Western Australia,1875
Shipwreck,16/05/1943,16/05/1943,0,0,0,4,0,0,0,0,0,0,0,0,0,0,0,0,0,0,0,0,0,1,0,0,0,0,0,0,0,New South Wales,1943
Shipwreck,16/03/1945,16/03/1945,0,0,0,72,0,0,0,0,0,0,0,0,0,0,0,0,0,0,0,0,0,2,0,0,0,0,0,0,0,Queensland,1945
Shipwreck,13/01/1854,13/01/1854,0,0,0,5,0,0,0,0,0,0,0,0,0,0,0,0,0,0,0,0,0,1,0,0,0,0,0,0,0,Victoria,1854
Industrial,20/09/1975,20/09/1975,0,0,0,13,0,0,0,0,0,0,0,0,0,0,0,0,0,0,0,0,0,0,0,0,0,0,0,0,0,Queensland,1975
Shipwreck,25/06/1956,25/06/1956,0,0,0,8,0,0,0,0,0,0,0,0,0,0,0,0,0,0,0,0,0,1,0,0,0,0,0,0,0,Victoria,1956
Severe Storm,10/04/1998,10/04/1998,0,0,0,3,0,0,0,0,0,0,0,0,0,0,0,0,0,0,0,0,0,0,0,0,0,0,0,0,0,Queensland,1998
Shipwreck,21/05/1836,21/05/1836,0,0,8,10,0,0,0,0,0,0,0,0,0,0,0,0,0,0,0,0,0,1,0,0,0,0,0,0,0,Queensland,1836
Shipwreck,12/07/1899,12/07/1899,0,0,0,33,0,0,0,0,0,0,0,0,0,0,0,0,0,0,0,0,0,2,0,0,0,0,0,0,0,Western Australia,1899
Shipwreck,18/10/1881,18/10/1881,0,0,0,22,0,0,0,0,0,0,0,0,0,0,0,0,0,0,0,0,0,1,0,0,0,0,0,0,0,New South Wales,1881
Cyclone,08/12/1975,09/12/1975,0,20,0,0,20000000,0,0,0,0,0,0,0,0,0,0,0,0,0,0,0,0,0,0,0,0,0,0,0,0,Western Australia,1975
Shipwreck,11/04/1846,11/04/1846,0,0,1,14,0,0,0,0,0,0,0,0,0,0,0,0,0,0,0,0,0,0,0,0,0,0,0,0,0,Victoria,1846
Shipwreck,28/12/1893,28/12/1893,0,0,1,15,0,0,0,0,0,0,0,0,0,0,0,0,0,0,0,0,0,0,0,0,0,0,0,0,0,Victoria,1893
Hail,09/01/1976,09/01/1976,0,0,0,0,12000000,0,0,0,0,0,0,0,0,0,0,0,0,0,0,0,0,0,0,0,0,0,0,0,0,Queensland,1976
Flood,16/01/1950,19/01/1950,0,0,0,10,0,0,0,8000,0,0,0,0,0,0,0,0,0,0,0,0,0,0,0,0,0,0,0,1000,0,New South Wales,1950
Shipwreck,13/07/1888,13/07/1888,0,0,0,17,0,0,0,0,0,0,0,0,0,0,0,0,0,0,0,0,0,1,0,0,0,0,0,0,0,South Australia,1888
Shipwreck,02/06/1864,02/06/1864,0,0,2,7,0,0,0,0,0,0,0,0,0,0,0,0,0,0,0,0,0,1,0,0,0,0,0,0,0,New South Wales,1864
Chemical,05/05/1998,05/05/1998,0,0,9,4,0,0,0,0,0,0,0,0,0,0,0,0,0,0,0,0,1,0,0,0,0,0,0,0,0,Western Australia,1998
Transport,15/02/1901,15/02/1901,0,0,30,7,0,0,1,0,0,0,0,0,0,0,0,0,0,0,0,0,0,0,0,0,0,0,0,0,0,New South Wales,1901
Flood,09/03/2001,11/03/2001,50,0,0,2,37000000,0,0,707,0,0,0,0,0,0,0,0,0,0,166,0,0,0,0,0,0,0,0,0,0,Queensland,2001
Shipwreck,20/12/1837,20/12/1837,0,0,12,7,0,0,0,0,0,0,0,0,0,0,0,0,0,0,0,0,0,1,0,0,0,0,0,0,0,Victoria,1837
Severe Storm,06/12/1986,08/12/1986,0,50,0,0,10000000,0,0,0,0,0,0,0,0,0,0,0,0,0,0,0,0,0,0,0,0,0,0,0,0,South Australia,1986
Shipwreck,30/11/1876,30/11/1876,0,0,0,12,0,0,0,0,0,0,0,0,0,0,0,0,0,0,0,0,0,0,0,0,0,0,0,0,0,Western Australia,1876
Transport,10/07/1978,10/07/1978,0,0,4,6,0,0,0,2,1,0,0,0,0,0,0,0,0,1,0,0,0,0,0,0,0,0,0,0,0,Victoria,1978
Severe Storm,09/11/1976,09/11/1976,0,0,10,0,732000000,0,0,0,0,0,0,0,0,0,0,0,0,0,0,0,0,0,0,0,0,0,0,0,0,New South Wales,1976
Hail,11/12/1996,11/12/1996,0,0,0,0,49000000,0,0,700,0,0,0,0,0,0,0,0,0,0,2000,50,0,0,0,0,0,0,0,0,0,New South Wales,1996
Flood,01/02/1870,01/02/1870,0,0,0,15,0,0,0,0,0,0,0,0,0,0,0,0,0,0,0,0,0,0,0,0,0,0,0,0,0,Queensland,1870
Epidemic,19/01/1900,01/01/1925,0,0,1371,535,0,0,0,0,0,0,0,0,0,0,0,0,0,0,0,0,0,0,0,0,0,0,0,0,0,Queensland;New South Wales;South Australia;Western Australia;Victoria,1900
Bushfire,16/10/1991,31/01/1992,0,0,0,2,12000000,0,0,0,14,0,0,0,0,0,0,0,0,0,0,0,0,0,0,0,0,0,0,0,0,New South Wales,1991
Bushfire,14/01/1985,28/01/1985,0,600,0,3,0,0,0,0,180,0,0,0,0,0,0,0,0,0,0,0,0,0,0,0,0,500,0,46000,0,Victoria,1985
Environmental,01/01/1951,04/01/1954,0,0,0,0,0,0,0,0,0,0,0,0,0,0,0,0,0,0,0,0,0,0,0,0,0,0,0,100000,0,Western Australia,1951
Transport,06/11/1920,06/11/1920,0,0,0,9,0,0,0,0,0,0,0,0,0,0,0,0,0,0,0,0,0,0,0,0,0,0,0,0,0,Western Australia,1920
Industrial,01/09/1923,01/09/1923,0,0,0,21,0,0,0,0,0,0,0,0,0,0,0,0,0,0,0,0,0,0,0,0,0,0,0,0,0,New South Wales,1923
Criminal Act,08/12/1987,08/12/1987,0,0,5,9,0,0,0,0,0,0,0,0,0,0,0,0,0,0,0,0,0,0,0,0,0,0,0,0,0,Victoria,1987
Flood,17/08/1998,19/08/1998,0,0,0,1,40000000,0,0,50,0,0,0,0,0,0,0,0,0,0,0,0,0,0,0,0,0,0,0,0,0,New South Wales,1998
Complex Emergencies,05/01/1975,05/01/1975,0,0,0,12,0,0,0,0,0,0,0,0,0,0,1,0,0,0,0,0,0,1,0,0,0,0,0,0,0,Tasmania,1975
Shipwreck,08/12/1886,08/12/1886,0,0,0,40,0,0,0,0,0,0,0,0,0,0,0,0,0,0,0,0,1,1,0,0,0,0,0,0,0,New South Wales,1886
Complex Emergencies,14/05/1943,14/05/1943,0,0,0,268,0,0,0,0,0,0,0,0,0,0,0,0,0,0,0,0,0,1,0,0,0,0,0,0,0,Queensland,1943
Transport,10/06/1926,10/06/1926,0,0,39,4,0,0,1,0,0,0,0,0,0,0,0,0,0,0,0,0,0,0,0,0,0,0,0,0,0,New South Wales,1926
Bushfire,01/02/1926,03/10/1926,0,700,0,60,0,0,0,0,0,0,0,0,0,0,0,0,0,0,0,0,0,0,0,0,0,0,0,0,0,Victoria,1926
Shipwreck,21/08/1920,21/08/1920,0,0,0,12,0,0,0,0,0,0,0,0,0,0,0,0,0,0,0,0,0,1,0,0,0,0,0,0,0,Victoria,1920
Transport,07/08/1998,07/08/1998,0,0,19,3,0,0,0,0,0,0,0,0,0,0,0,0,0,0,0,0,0,0,0,0,0,0,0,0,0,New South Wales,1998
Shipwreck,01/01/1753,01/01/1753,0,0,0,100,0,0,0,0,0,0,0,0,0,0,0,0,0,0,0,0,0,1,0,0,0,0,0,0,0,Western Australia,1753
Bushfire,02/12/1998,02/12/1998,0,0,0,5,0,0,0,0,0,0,0,0,0,0,0,0,0,0,0,2,0,0,0,0,0,0,0,0,0,Victoria,1998
Transport,23/12/1984,23/12/1984,0,0,0,6,0,0,0,0,0,0,0,0,0,0,0,0,0,1,0,0,0,0,0,0,0,0,0,0,0,Western Australia,1984
Flood,25/01/1974,29/01/1974,2500,0,300,13,68000000,0,0,6000,56,0,0,0,0,0,0,0,0,0,0,0,0,0,0,0,0,0,0,0,0,Queensland,1974
Hail,14/04/1999,14/04/1999,0,500,50,1,1700000000,0,0,20000,0,2500,0,0,0,0,0,0,25,0,40000,0,60,0,2000,0,0,0,0,0,0,New South Wales,1999
Shipwreck,14/09/1852,14/09/1852,0,0,0,14,0,0,0,0,0,0,0,0,0,0,0,0,0,0,0,0,0,1,0,0,0,0,0,0,0,Victoria,1852
Complex Emergencies,22/10/1985,22/10/1985,0,0,60,3,0,0,0,0,0,0,0,0,0,0,0,0,0,0,0,0,0,0,0,0,0,0,0,0,0,Outside Australia,1985
Shipwreck,09/05/1900,09/05/1900,0,0,0,23,0,0,0,0,0,0,0,0,0,0,0,0,0,0,0,0,0,1,0,0,0,0,0,0,0,Victoria,1900
Flood,01/02/1893,15/02/1893,0,5000,300,35,0,0,0,0,0,0,0,0,0,0,0,2,0,0,0,0,0,0,0,0,0,0,0,0,0,Queensland,1893
Cyclone,28/02/1969,03/09/1969,0,0,0,4,0,0,0,0,0,0,0,0,0,0,0,0,0,0,0,0,0,0,0,0,0,0,0,0,0,Northern Territory,1969
Hail,03/10/1986,03/10/1986,0,120,10,0,104000000,0,0,0,0,0,0,0,0,0,0,0,0,0,0,0,0,0,0,0,0,0,0,0,0,New South Wales,1986
Shipwreck,19/05/1842,20/05/1842,0,0,0,5,0,0,0,0,0,0,0,0,0,0,0,0,0,0,0,0,0,1,0,0,0,0,0,0,0,New South Wales,1842
Shipwreck,25/03/1911,25/03/1911,0,0,0,31,0,0,0,0,0,0,0,0,0,0,0,0,0,0,0,0,0,1,0,0,0,0,0,0,0,Victoria,1911
Cyclone,27/03/1972,04/02/1972,0,0,0,8,0,0,0,0,0,0,0,0,0,0,0,0,0,0,0,0,0,0,0,0,0,0,0,0,0,Queensland,1972
Transport,21/06/1987,21/06/1987,0,0,1,4,0,0,0,0,0,0,0,0,0,0,0,0,0,1,0,0,0,0,0,0,0,0,0,0,0,Queensland,1987
Bushfire,27/09/1994,11/07/1994,3000,0,9,0,59100000,0,0,0,23,0,0,0,0,0,0,0,0,0,0,0,0,0,0,0,0,0,0,0,0,Queensland,1994
Shipwreck,23/09/1896,23/09/1896,0,0,3,4,0,0,0,0,0,0,0,0,0,0,0,0,0,0,0,0,0,1,0,0,0,0,0,0,0,Victoria,1896
Shipwreck,15/05/1853,15/05/1853,0,0,0,37,0,0,0,0,0,0,0,0,0,0,0,0,0,0,0,0,0,1,0,0,0,0,0,0,0,Victoria,1853
Shipwreck,13/01/1835,13/01/1835,0,0,0,3,0,0,0,0,0,0,0,0,0,0,0,0,0,0,0,0,0,1,0,0,0,0,0,0,0,New South Wales,1835
Industrial,16/07/1986,16/07/1986,0,0,0,12,0,0,0,0,0,0,0,0,0,0,0,0,0,0,0,0,0,0,0,0,0,0,0,0,0,Queensland,1986
Transport,24/12/1928,24/12/1928,0,0,54,0,0,0,0,0,0,0,0,0,0,0,0,0,0,0,0,0,0,0,0,0,0,0,0,0,0,Victoria,1928
Urban Fire,09/06/1979,09/06/1979,0,0,0,7,0,0,0,0,0,0,0,0,0,0,0,0,0,0,0,0,0,0,0,0,0,0,0,0,0,New South Wales,1979
Industrial,05/09/1974,05/09/1974,0,0,17,8,0,0,0,0,0,1,0,0,0,0,0,0,0,0,0,0,0,0,0,0,0,0,0,0,0,Tasmania,1974
Industrial,06/08/1996,06/08/1996,0,0,50,0,0,0,0,0,0,0,0,0,0,0,0,0,0,0,0,0,0,0,0,0,0,0,0,0,0,South Australia,1996
Earthquake,01/03/1954,01/03/1954,0,0,3,0,0,0,0,0,0,3000,0,0,0,0,0,0,0,0,0,0,0,0,0,0,0,0,0,0,0,South Australia,1954
Shipwreck,26/08/1862,26/08/1862,0,0,1,12,0,0,0,0,0,0,0,0,0,0,0,0,0,0,0,0,1,1,0,0,0,0,0,0,0,Victoria,1862
Bushfire,02/01/1955,02/01/1955,0,0,0,2,0,0,0,0,0,0,0,0,0,0,0,0,0,0,0,0,0,0,0,0,0,0,0,0,0,South Australia,1955
Industrial,01/01/1972,01/01/1972,0,0,0,3,0,0,0,0,0,0,0,0,0,0,0,0,0,0,0,0,0,0,0,0,0,0,0,0,0,New South Wales,1972
Cyclone,24/02/1995,27/02/1995,0,0,0,8,11000000,0,0,20,0,0,0,0,0,0,0,0,0,0,0,0,0,0,0,0,0,0,0,0,0,Western Australia,1995
Complex Emergencies,26/12/1998,30/12/1998,0,0,70,6,5000000,0,0,0,0,0,0,0,0,0,0,0,0,0,0,0,80,7,0,0,0,0,0,0,0,Victoria,1998
Bushfire,16/09/1918,30/12/1918,0,0,0,5,0,0,0,0,0,0,0,0,0,0,0,0,0,0,0,0,0,0,0,0,0,0,0,0,0,Queensland,1918
Hail,01/01/1947,01/01/1947,0,0,300,0,0,0,0,0,0,0,0,0,0,0,0,0,0,0,0,0,0,0,0,0,0,0,0,0,0,New South Wales,1947
Shipwreck,28/05/1853,28/05/1853,0,0,0,4,0,0,0,0,0,0,0,0,0,0,0,0,0,0,0,0,0,1,0,0,0,0,0,0,0,Victoria,1853
Shipwreck,14/07/1912,14/07/1912,0,0,0,5,0,0,0,0,0,0,0,0,0,0,0,0,0,0,0,0,0,1,0,0,0,0,0,0,0,New South Wales,1912
Shipwreck,21/03/1901,21/03/1901,0,0,0,21,0,0,0,0,0,0,0,0,0,0,0,0,0,0,0,0,0,0,0,0,0,0,0,0,0,Victoria,1901
Transport,02/10/1994,02/10/1994,0,0,0,9,0,0,0,0,0,0,0,0,0,0,0,0,0,1,0,0,0,0,0,0,0,0,0,0,0,New South Wales,1994
Bushfire,24/12/2001,01/11/2002,11000,0,0,0,69000000,0,0,40,109,0,443,0,0,0,0,0,0,0,0,222,0,0,0,0,0,0,0,7043,0,New South Wales;Australian Capital Territory,2001
Shipwreck,10/07/1932,10/07/1932,0,0,0,10,0,0,0,0,0,0,0,0,0,0,0,0,0,0,0,0,0,1,0,0,0,0,0,0,0,Victoria,1932
Earthquake,06/08/1994,06/08/1994,0,0,0,0,37200000,0,0,0,0,0,0,0,0,0,0,0,0,0,0,0,0,0,0,0,0,0,0,0,0,New South Wales,1994
Flood,08/11/1984,08/11/1984,0,0,0,0,80000000,0,0,0,0,0,0,0,0,0,0,0,0,0,0,0,0,0,0,0,0,0,0,0,0,New South Wales,1984
Environmental,19/09/1998,23/09/1998,0,0,0,0,0,0,0,0,0,0,0,0,0,0,0,0,0,0,0,0,0,0,0,0,0,0,0,0,0,Western Australia,1998
Epidemic,01/01/1930,01/01/1959,0,0,40000,0,0,0,0,0,0,0,0,0,0,0,0,0,0,0,0,0,0,0,0,0,0,0,0,0,0,Queensland;New South Wales;Australian Capital Territory;South Australia;Western Australia;Northern Territory;Tasmania;Victoria,1930
Environmental,12/01/1911,28/02/1912,0,0,0,143,0,0,0,0,0,0,0,0,0,0,0,0,0,0,0,0,0,0,0,0,0,0,0,0,0,Northern Territory;Queensland;New South Wales;Australian Capital Territory;South Australia;Western Australia;Tasmania;Victoria,1911
Transport,27/06/1950,27/06/1950,0,0,0,29,0,0,0,0,0,0,0,0,0,0,0,0,0,1,0,0,0,0,0,0,0,0,0,0,0,Western Australia,1950
Shipwreck,22/06/1852,23/06/1852,0,0,0,7,0,0,0,0,0,0,0,0,0,0,0,0,0,0,0,0,0,5,0,0,0,0,0,0,0,New South Wales,1852
Flood,26/01/1971,26/01/1971,0,0,15,7,0,0,0,0,0,0,0,0,0,0,0,0,0,0,0,0,0,0,0,0,0,0,0,0,0,Australian Capital Territory,1971
Industrial,13/10/1954,13/10/1954,0,0,2,7,0,0,0,0,0,0,0,0,0,0,0,0,0,0,0,0,0,0,0,0,0,0,0,0,0,Queensland,1954
Industrial,29/10/1905,29/10/1905,0,0,0,6,0,0,0,0,0,0,0,0,0,0,0,0,0,0,0,0,0,0,0,0,0,0,0,0,0,New South Wales,1905
Cyclone,06/03/1956,07/03/1956,0,0,0,4,0,0,0,0,20,0,0,0,0,0,0,0,0,0,0,0,0,0,0,0,0,0,0,0,0,Queensland,1956
Chemical,25/01/1950,25/01/1950,0,0,12,8,0,0,0,0,0,0,0,0,0,0,0,0,0,0,0,0,0,1,0,0,0,0,0,0,0,New South Wales,1950
Shipwreck,02/09/1894,02/09/1894,0,0,0,5,0,0,0,0,0,0,0,0,0,0,0,0,0,0,0,0,0,1,0,0,0,0,0,0,0,Queensland,1894
Transport,13/09/1926,13/09/1926,0,0,38,27,0,0,2,0,0,0,0,0,0,0,0,0,0,0,0,0,0,0,0,0,0,0,0,0,0,New South Wales,1926
Shipwreck,23/03/1911,23/03/1911,0,0,0,137,0,0,0,0,0,0,0,0,0,0,0,0,0,0,0,0,0,1,0,0,0,0,0,0,0,Queensland,1911
Flood,04/08/1986,06/08/1986,0,0,0,6,35000000,0,0,10000,0,0,0,0,0,0,0,0,0,0,0,0,0,0,0,0,0,0,0,0,0,New South Wales,1986
Complex Emergencies,05/08/1944,18/08/1944,0,0,108,231,0,0,0,0,0,0,0,0,0,0,0,0,0,0,0,0,0,0,0,0,0,0,0,0,0,New South Wales,1944
Shipwreck,30/06/1857,30/06/1857,0,0,0,16,0,0,0,0,0,0,0,0,0,0,0,0,0,0,0,0,0,1,0,0,0,0,0,0,0,South Australia,1857
Flood,16/12/1991,18/12/1991,0,220,0,0,24000000,0,0,0,0,0,0,0,0,0,0,0,0,0,0,0,0,0,0,0,0,0,0,0,0,Victoria,1991
Shipwreck,11/07/1861,11/07/1861,0,0,0,6,0,0,0,0,0,0,0,0,0,0,0,0,0,0,0,0,0,1,0,0,0,0,0,0,0,Victoria,1861
Transport,19/12/1953,19/12/1953,0,0,748,5,0,0,0,0,0,0,0,0,0,0,0,0,0,0,0,0,0,0,0,0,0,0,0,0,0,New South Wales,1953
Shipwreck,08/01/1990,08/01/1990,0,0,0,5,0,0,0,0,0,0,0,0,0,0,0,0,0,0,0,0,0,1,0,0,0,0,0,0,0,New South Wales,1990
Flood,05/03/2001,12/03/2001,3000,250,0,0,25000000,0,0,0,0,0,0,0,0,0,0,0,0,0,0,0,0,0,0,0,0,0,0,0,0,New South Wales,2001
Shipwreck,17/05/1852,17/05/1852,0,0,0,21,0,0,0,0,0,0,0,0,0,0,0,0,0,0,0,0,0,0,0,0,0,0,0,0,0,Victoria,1852
Cyclone,03/01/1979,03/01/1979,0,0,5,15,15000000,0,0,0,0,0,0,0,0,0,0,0,0,0,0,0,0,1,0,0,0,0,0,0,0,Western Australia,1979
Industrial,19/09/1921,19/09/1921,0,0,0,75,0,0,0,0,0,0,0,0,0,0,0,0,0,0,0,0,0,0,0,0,0,0,0,0,0,Queensland,1921
Transport,20/10/1989,20/10/1989,0,0,22,21,0,0,0,0,0,0,0,0,0,0,0,0,0,0,0,2,0,0,0,0,0,0,0,0,0,New South Wales,1989
Urban Fire,01/01/1963,01/01/1963,0,0,0,3,0,0,0,0,0,0,0,0,0,0,0,0,0,0,0,0,0,0,0,0,0,0,0,0,0,Victoria,1963
Environmental,01/01/1895,01/01/1902,0,0,0,0,0,0,0,0,0,0,0,0,0,0,0,0,0,0,0,0,0,0,0,0,0,0,0,0,0,Northern Territory;Queensland;New South Wales;Australian Capital Territory;South Australia;Western Australia;Tasmania;Victoria,1895
Shipwreck,01/01/1753,01/01/1753,0,0,0,130,0,0,0,0,0,0,0,0,0,0,0,0,0,0,0,0,0,1,0,0,0,0,0,0,0,Western Australia,1753
Shipwreck,26/05/1848,26/05/1848,0,0,20,4,0,0,0,0,0,0,0,0,0,0,0,0,0,0,0,0,0,1,0,0,0,0,0,0,0,Victoria,1848
Industrial,21/03/1898,21/03/1898,0,0,0,15,0,0,0,0,0,0,0,0,0,0,0,0,0,0,0,0,0,0,0,0,0,0,0,0,0,New South Wales,1898
Transport,07/05/1952,07/05/1952,0,0,140,10,0,2,0,0,0,0,0,0,0,0,0,0,0,0,0,0,0,0,0,0,0,0,0,0,0,New South Wales,1952
Hail,16/12/1998,16/12/1998,0,0,0,0,76000000,0,0,2600,0,0,0,0,550,0,0,0,0,0,1500,0,0,0,0,0,0,0,0,0,0,Queensland,1998
Shipwreck,31/01/1970,31/01/1970,0,0,0,9,0,0,0,0,0,0,0,0,0,0,0,0,0,0,0,0,0,1,0,0,0,0,0,0,0,Northern Territory,1970
Bushfire,06/02/1851,07/02/1851,0,100,0,12,0,0,0,0,0,0,0,0,0,0,0,0,0,0,0,0,0,0,0,0,0,0,0,0,0,Victoria,1851
Shipwreck,19/09/1919,19/09/1919,0,0,7,11,0,0,0,0,0,0,0,0,0,0,0,0,0,0,0,0,0,1,0,0,0,0,0,0,0,South Australia,1919
Shipwreck,06/08/1859,06/08/1859,0,0,24,89,0,0,0,0,0,0,0,0,0,0,0,0,0,0,0,0,0,0,0,0,0,0,0,0,0,South Australia,1859
Shipwreck,29/11/1934,30/11/1934,0,0,0,16,0,0,0,0,0,0,0,0,0,0,0,0,0,0,0,0,0,1,0,0,0,0,0,0,0,Victoria,1934
Industrial,29/05/1991,29/05/1991,0,0,0,3,0,0,0,0,0,0,0,0,0,0,0,0,0,0,0,0,0,0,0,0,0,0,0,0,0,New South Wales,1991
Transport,03/08/1920,03/08/1920,0,0,18,4,0,0,1,0,0,0,0,0,0,0,0,0,0,0,0,0,0,0,0,0,0,0,0,0,0,New South Wales,1920
Environmental,01/01/1939,30/06/1945,0,0,0,0,0,0,0,0,0,0,0,0,0,0,0,0,0,0,0,0,0,0,0,0,0,0,0,0,0,Northern Territory;Queensland;New South Wales;Australian Capital Territory;South Australia;Western Australia;Tasmania;Victoria,1939
Urban Fire,09/09/1952,09/09/1952,0,0,26,5,0,0,0,0,0,0,1,0,0,0,0,0,0,0,0,0,0,0,0,0,0,0,0,0,0,Victoria,1952
Urban Fire,17/09/1989,17/09/1989,0,0,18,6,0,0,0,0,0,0,1,0,0,0,0,0,0,0,0,0,0,0,0,0,0,0,0,0,0,New South Wales,1989
Industrial,05/12/1900,05/12/1900,0,0,0,5,0,0,0,0,0,0,0,0,0,0,0,0,0,0,0,0,0,0,0,0,0,0,0,0,0,New South Wales,1900
Shipwreck,19/07/1908,19/07/1908,0,0,0,19,0,0,0,0,0,0,0,0,0,0,0,0,0,0,0,0,0,1,0,0,0,0,0,0,0,New South Wales,1908
Shipwreck,24/05/1856,24/05/1856,0,0,0,4,0,0,0,0,0,0,0,0,0,0,0,0,0,0,0,0,0,0,0,0,0,0,0,0,0,Victoria,1856
Transport,08/02/1969,08/02/1969,0,0,0,4,0,0,0,0,0,0,0,0,0,0,0,0,0,1,0,0,0,0,0,0,0,0,0,0,0,South Australia,1969
Bushfire,04/02/1932,28/02/1932,0,0,0,9,0,0,0,0,0,0,0,0,0,0,0,0,0,0,0,0,0,0,0,0,0,0,0,0,0,Victoria,1932
Transport,01/11/1993,01/11/1993,0,0,35,9,0,0,0,0,0,0,0,0,0,0,0,0,0,0,0,0,0,0,0,0,0,0,0,0,0,Victoria,1993
Urban Fire,22/08/1946,22/08/1946,0,0,0,0,0,0,0,0,0,0,1,0,0,0,0,0,0,0,0,0,0,0,0,1,0,0,0,0,0,New South Wales,1946
Transport,10/03/1947,10/03/1947,0,0,70,0,0,0,0,0,0,0,0,0,0,0,0,0,0,0,1,0,0,0,0,0,0,0,0,0,0,New South Wales,1947
Criminal Act,28/04/1996,28/04/1996,0,0,21,35,0,0,0,0,0,0,0,0,0,0,0,0,0,0,0,0,0,0,0,0,0,0,0,0,0,Tasmania,1996
Transport,16/12/1988,16/12/1988,0,0,0,10,0,0,0,0,0,0,0,0,0,0,0,0,0,1,0,0,0,0,0,0,0,0,0,0,0,Western Australia,1988
Flood,01/06/1950,30/06/1950,0,0,0,5,0,0,0,0,0,0,0,0,0,0,0,0,0,0,0,0,0,0,0,0,0,0,0,0,0,New South Wales,1950
Severe Storm,20/11/1994,20/11/1994,0,0,2,2,29000000,0,0,0,0,0,0,0,0,0,0,0,0,0,0,0,0,0,0,0,0,0,0,0,0,New South Wales,1994
Cyclone,17/01/1970,19/01/1970,0,0,0,14,12000000,0,0,0,0,0,0,0,0,0,0,0,0,0,0,0,0,0,0,0,0,0,0,0,0,Queensland,1970
Severe Storm,23/05/1994,24/05/1994,0,200,0,0,37000000,0,0,0,0,0,0,0,0,0,0,0,0,0,0,0,0,0,0,0,0,0,0,0,0,Western Australia,1994
Epidemic,11/04/2000,27/04/2000,0,0,131,4,0,0,0,0,0,0,0,0,0,0,0,0,0,0,0,0,0,0,0,0,0,0,0,0,0,Victoria,2000
Transport,18/08/1999,18/08/1999,0,0,45,0,0,0,0,0,0,0,0,0,0,0,0,0,0,0,0,0,0,0,0,0,0,0,0,0,0,Western Australia,1999
Flood,31/03/1988,04/02/1988,300,0,0,3,10000000,0,0,0,0,0,0,0,0,0,0,0,0,0,0,0,0,0,0,0,0,0,0,0,0,Northern Territory,1988
Environmental,20/01/2000,24/01/2000,0,0,350,22,0,0,0,0,0,0,0,0,0,0,0,0,0,0,0,0,0,0,0,0,0,0,0,0,0,Queensland,2000
Bushfire,12/02/1977,12/02/1977,0,350,0,4,9000000,0,0,0,116,0,340,0,0,0,0,0,0,0,0,0,0,0,0,0,0,0,0,198000,0,Victoria,1977
Flood,14/04/1889,19/04/1889,0,0,0,5,0,0,0,0,0,0,0,0,0,0,0,0,0,0,0,0,0,0,0,0,0,0,0,0,0,South Australia,1889
Urban Fire,25/08/1981,25/08/1981,55,0,0,9,0,0,0,0,0,0,0,0,0,0,0,0,0,0,0,0,0,0,0,0,0,0,0,0,0,New South Wales,1981
Shipwreck,28/02/1890,28/02/1890,0,0,158,133,0,0,0,0,0,0,0,0,0,0,0,0,0,0,0,0,0,1,0,0,0,0,0,0,0,Queensland,1890
Severe Storm,04/02/1998,04/02/1998,0,0,1,0,12000000,0,0,0,0,0,0,0,0,0,0,0,0,0,0,0,0,0,0,0,0,0,0,0,0,New South Wales,1998
Flood,20/01/1930,30/01/1930,0,0,0,6,0,0,0,0,0,0,0,0,0,0,0,0,0,0,0,0,0,0,0,0,0,0,0,0,0,Queensland,1930
Landslide,30/07/1997,30/07/1997,0,0,1,18,0,0,0,0,0,0,2,0,0,0,0,0,0,0,0,0,0,0,0,0,0,0,0,0,0,New South Wales,1997
Industrial,15/10/1970,15/10/1970,0,0,0,35,0,0,0,0,0,0,0,0,0,0,0,1,0,0,0,0,0,0,0,0,0,0,0,0,0,Victoria,1970
Flood,02/10/1927,17/02/1927,0,0,0,47,0,0,0,0,16,0,0,0,0,0,0,0,0,0,0,0,0,0,0,0,0,0,0,0,0,Queensland,1927
Transport,24/02/1951,24/02/1951,0,0,0,11,0,0,0,0,0,0,0,0,0,0,0,0,0,0,0,1,0,0,0,0,0,0,0,0,0,Victoria,1951
Severe Storm,24/10/1999,24/10/1999,0,0,0,0,45000000,0,0,0,0,0,0,0,0,0,0,0,0,0,0,0,0,0,0,0,0,0,0,0,0,New South Wales,1999
Bushfire,17/01/1965,17/01/1965,0,0,0,7,0,0,0,0,6,0,0,0,0,0,0,0,0,0,0,0,0,0,0,0,0,0,0,0,0,Victoria,1965
Environmental,01/01/1958,09/01/1968,0,0,0,0,0,0,0,0,0,0,0,0,0,0,0,0,0,0,0,0,0,0,0,0,0,0,0,0,0,Northern Territory;Queensland;New South Wales;Australian Capital Territory;South Australia;Western Australia;Tasmania;Victoria,1958
Flood,14/02/1928,22/02/1928,0,0,0,5,0,0,0,0,0,0,0,0,0,0,0,0,0,0,0,0,0,0,0,0,0,0,0,0,0,Queensland,1928
Transport,30/11/1961,30/11/1961,0,0,0,15,0,0,0,0,0,0,0,0,0,0,0,0,0,1,0,0,0,0,0,0,0,0,0,0,0,New South Wales,1961
Urban Fire,10/07/1901,10/07/1901,0,0,0,5,0,0,0,0,0,0,0,0,0,0,0,0,0,0,0,0,0,0,0,1,0,0,0,0,0,New South Wales,1901
Flood,01/04/1890,01/10/1890,0,0,0,9,0,0,0,0,0,0,0,0,0,0,0,0,0,0,0,0,0,0,0,0,0,0,0,0,0,New South Wales,1890
Flood,03/04/1929,06/04/1929,0,0,0,22,0,0,0,0,0,0,100,0,0,0,0,25,0,0,0,0,0,0,0,0,0,0,0,0,0,Tasmania,1929
Shipwreck,06/08/1858,06/08/1858,0,0,0,12,0,0,0,0,0,0,0,0,0,0,0,0,0,0,0,0,0,1,0,0,0,0,0,0,0,Victoria,1858
Flood,03/09/1975,03/09/1975,0,0,0,0,15000000,0,0,0,0,0,0,0,0,0,0,0,0,0,0,0,0,0,0,0,0,0,0,0,0,New South Wales,1975
Shipwreck,25/08/1969,25/08/1969,0,0,0,21,0,0,0,0,0,0,0,0,0,0,0,0,0,0,0,0,0,1,0,0,0,0,0,0,0,New South Wales,1969
Bushfire,01/10/1926,17/12/1926,0,0,0,8,0,0,0,0,0,0,0,0,0,0,0,0,0,0,0,0,0,0,0,0,0,0,0,0,0,Queensland;New South Wales,1926
Industrial,21/01/1926,21/01/1926,0,0,0,5,0,0,0,0,0,0,0,0,0,0,0,0,0,0,0,0,0,0,0,0,0,0,0,0,0,New South Wales,1926
Transport,16/03/1914,16/03/1914,0,0,20,14,0,0,1,0,0,0,0,0,0,0,0,0,0,0,0,0,0,0,0,0,0,0,0,0,0,New South Wales,1914
Severe Storm,17/11/1996,17/11/1996,0,0,0,1,10000000,0,0,0,0,0,0,0,0,0,0,0,0,0,0,0,0,0,0,0,0,0,0,0,0,New South Wales,1996
Flood,02/03/1973,30/03/1973,0,0,0,0,30000000,0,0,0,0,0,0,0,0,0,0,0,0,0,0,0,0,0,0,0,0,0,0,0,0,Queensland,1973
Cyclone,24/01/1896,28/01/1896,0,0,0,18,0,0,0,0,0,0,0,0,0,0,0,0,0,0,0,0,0,0,0,0,0,0,0,0,0,Queensland,1896
Bushfire,01/12/1979,02/01/1980,0,0,0,5,0,0,0,20,28,0,0,0,0,0,0,0,0,0,0,0,0,0,0,0,0,0,0,0,0,New South Wales,1979
Flood,25/01/1998,02/02/1998,2000,3600,30,3,70000000,0,0,1170,0,500,0,0,0,0,0,0,0,0,0,0,0,0,0,0,0,0,0,0,0,Northern Territory,1998
Severe Storm,30/11/1995,30/11/1995,0,0,0,0,10000000,0,0,0,0,0,0,0,0,0,0,0,0,0,0,0,0,0,0,0,0,0,0,0,0,New South Wales,1995
Urban Fire,02/08/1991,02/08/1991,0,0,28,12,0,0,0,0,0,0,1,0,0,0,0,0,0,0,0,0,0,0,0,0,0,0,0,0,0,New South Wales,1991
Severe Storm,21/01/1991,21/01/1991,0,0,100,1,138400000,0,0,10000,20,1000,0,0,0,0,0,0,0,0,0,0,0,0,0,0,0,0,0,0,0,New South Wales,1991
Urban Fire,23/06/2000,23/06/2000,0,0,0,15,0,0,0,0,0,0,1,0,0,0,0,0,0,0,0,0,0,0,0,0,0,0,0,0,0,Queensland,2000
Epidemic,11/01/1994,02/01/1995,0,0,22,1,0,0,0,0,0,0,0,0,0,0,0,0,0,0,0,0,0,0,0,0,0,0,0,0,0,South Australia,1994
Cyclone,02/03/1949,03/03/1949,0,300,0,4,0,0,0,0,1500,0,0,0,0,0,0,0,0,0,0,0,0,0,0,0,0,0,0,0,0,Queensland,1949
Shipwreck,25/03/1862,25/03/1862,0,0,0,4,0,0,0,0,0,0,0,0,0,0,0,0,0,0,0,0,0,0,0,0,0,0,0,0,0,New South Wales,1862
Cyclone,18/03/1999,24/03/1999,0,0,0,0,35000000,0,0,200,112,0,0,0,0,0,0,0,0,0,0,0,0,0,0,0,0,0,0,0,0,Western Australia,1999
Flood,18/04/1928,24/04/1928,0,0,0,9,0,0,0,0,0,0,0,0,0,0,0,0,0,0,0,0,0,0,0,0,0,0,0,0,0,New South Wales;Queensland,1928
Bushfire,01/01/1983,31/01/1983,0,0,0,3,0,0,0,0,0,0,0,0,0,0,0,0,0,0,0,0,0,0,0,0,0,0,0,0,0,New South Wales,1983
Shipwreck,05/03/1830,05/03/1830,0,0,0,3,0,0,0,0,0,0,0,0,0,0,0,0,0,0,0,0,0,1,0,0,0,0,0,0,0,Western Australia,1830
Shipwreck,01/11/1835,01/11/1835,0,0,0,3,0,0,0,0,0,0,0,0,0,0,0,0,0,0,0,0,1,0,0,0,0,0,0,0,0,New South Wales,1835
Bushfire,13/01/1939,20/01/1939,0,0,0,71,0,0,0,0,1000,0,0,0,0,0,0,0,0,0,0,0,0,0,0,69,0,0,0,0,0,Australian Capital Territory;New South Wales;Victoria;South Australia;Tasmania,1939
Bushfire,15/02/1965,13/03/1965,0,0,0,3,0,0,0,0,0,0,60,0,0,0,0,0,0,0,0,0,0,0,0,0,0,0,0,4000,0,Victoria,1965
Cyclone,07/03/1955,07/03/1955,0,0,0,8,0,0,0,0,0,0,0,0,0,0,0,0,0,0,0,0,0,1,0,0,0,0,0,0,0,Queensland,1955
Shipwreck,01/04/1854,01/04/1854,0,0,0,4,0,0,0,0,0,0,0,0,0,0,0,0,0,0,0,0,0,0,0,0,0,0,0,0,0,Victoria,1854
Severe Storm,17/01/2001,17/01/2001,0,0,0,0,35000000,0,0,800,0,0,0,0,0,0,0,0,0,0,300,0,0,0,0,0,0,0,0,0,0,New South Wales,2001
Earthquake,14/10/1968,14/10/1968,0,0,20,0,1500000,0,0,0,0,50,0,0,0,0,0,0,0,0,0,0,0,0,0,0,0,0,0,0,0,Western Australia,1968
Transport,31/05/2000,31/05/2000,0,0,0,8,0,0,0,0,0,0,0,0,0,0,0,0,0,1,0,0,0,0,0,0,0,0,0,0,0,South Australia,2000
Severe Storm,06/11/1994,08/11/1994,0,100,50,1,0,0,0,0,0,0,0,0,0,0,0,0,0,0,0,0,0,0,0,0,0,0,0,0,0,Australian Capital Territory;New South Wales;Victoria,1994
Shipwreck,24/02/1875,24/02/1875,0,0,0,102,0,0,0,0,0,0,0,0,0,0,0,0,0,0,0,0,0,1,0,0,0,0,0,0,0,Queensland,1875
Cyclone,20/03/1912,22/03/1912,0,0,0,173,0,0,0,0,0,0,0,0,0,0,0,0,0,0,0,0,0,0,0,0,0,0,0,0,0,Western Australia,1912
Flood,02/01/1981,02/01/1981,0,0,5,1,20000000,0,0,2000,0,0,0,0,0,0,0,0,0,0,0,0,0,0,0,0,0,0,0,0,0,Queensland,1981
Cyclone,10/03/1918,10/03/1918,0,0,0,37,0,0,0,0,0,0,0,0,0,0,0,0,0,0,0,0,0,0,0,0,0,0,0,0,0,Queensland,1918
Transport,25/11/1978,25/11/1978,0,0,0,5,0,0,0,0,0,0,0,0,0,0,0,0,0,1,0,0,0,0,0,0,0,0,0,0,0,South Australia,1978
Shipwreck,30/05/1853,30/05/1853,0,0,0,24,0,0,0,0,0,0,0,0,0,0,0,0,0,0,0,0,0,1,0,0,0,0,0,0,0,Victoria,1853
Flood,16/02/1958,24/02/1958,0,0,0,3,0,0,0,0,20,0,0,0,0,0,0,1,0,0,0,0,0,0,0,0,0,0,0,0,0,Queensland,1958
Shipwreck,20/07/1847,20/07/1847,0,0,0,5,0,0,0,0,0,0,0,0,0,0,0,0,0,0,0,0,0,1,0,0,0,0,0,0,0,New South Wales,1847
Shipwreck,01/11/1914,01/11/1914,0,0,0,25,0,0,0,0,0,0,0,0,0,0,0,0,0,0,0,0,0,1,0,0,0,0,0,0,0,Victoria,1914
Shipwreck,14/08/1858,14/08/1858,0,0,0,4,0,0,0,0,0,0,0,0,0,0,0,0,0,0,0,0,0,1,0,0,0,0,0,0,0,Victoria,1858
Transport,13/07/1972,13/07/1972,0,0,0,8,0,0,0,0,0,0,0,0,0,0,0,0,0,1,0,0,0,0,0,0,0,0,0,0,0,South Australia,1972
Transport,26/01/2001,26/01/2001,0,0,0,4,0,0,0,0,0,0,0,0,0,0,0,0,0,1,0,0,0,0,0,0,0,0,0,0,0,Western Australia,2001
Epidemic,05/01/2003,15/01/2003,0,0,195,1,0,0,0,0,0,0,0,0,0,0,0,0,0,0,0,0,0,0,0,0,0,0,0,0,0,Victoria,2003
Criminal Act,12/10/2002,12/10/2002,0,0,209,202,0,0,0,0,0,0,0,0,0,0,0,0,0,0,0,0,0,0,0,0,0,0,0,0,0,Outside Australia,2002
Transport,13/10/2002,13/10/2002,0,0,1,3,0,0,0,0,0,0,0,0,0,0,0,0,0,0,0,0,0,0,0,0,0,0,0,0,0,Victoria,2002
Bushfire,08/01/2003,19/03/2003,0,0,0,0,12000000,0,0,0,41,0,213,0,0,0,0,0,0,0,0,0,0,0,0,0,0,0,0,10000,0,Victoria,2003
Transport,31/01/2003,31/01/2003,0,0,41,7,0,0,0,0,0,0,0,0,0,0,0,0,0,0,0,0,0,0,0,0,0,0,0,0,0,New South Wales,2003
Severe Storm,24/08/2003,24/08/2003,0,0,4,1,25000000,0,0,0,0,0,0,0,0,0,0,0,0,0,0,0,0,0,0,0,0,0,0,0,0,Australian Capital Territory;New South Wales;Victoria;Tasmania,2003
Hail,24/01/2004,31/01/2004,0,0,3,1,28500000,0,0,0,0,0,0,0,0,0,0,0,0,0,0,0,0,0,0,0,0,0,0,0,0,Queensland,2004
Bushfire,10/01/2005,12/01/2005,0,0,110,9,27700000,0,0,26,79,324,0,0,0,0,0,0,0,1,0,139,0,0,0,0,0,0,0,46500,0,South Australia,2005
Severe Storm,01/02/2005,03/02/2005,0,0,0,0,216700000,0,0,0,0,0,0,0,0,0,0,0,0,0,0,0,13,14,0,0,0,0,0,0,0,Australian Capital Territory;New South Wales;Victoria;South Australia,2005
Chemical,21/02/2005,21/02/2005,2000,0,47,0,0,0,0,0,0,0,0,0,0,0,0,0,0,0,0,0,0,0,0,0,0,0,0,0,0,Victoria,2005
Transport,02/04/2005,02/04/2005,0,0,2,9,0,0,0,0,0,0,0,0,0,0,0,0,0,0,0,0,0,0,0,0,0,0,0,0,0,Outside Australia,2005
Transport,15/11/2003,15/11/2003,0,0,43,0,0,0,0,0,0,0,0,0,0,0,0,0,0,0,0,0,0,0,0,0,0,0,0,0,0,Victoria,2003
Complex Emergencies,25/09/1998,14/10/1998,0,0,8,2,1300000000,0,0,0,0,0,0,0,0,0,0,0,0,0,0,0,0,0,0,0,0,0,0,0,0,Victoria,1998
Severe Storm,16/02/2002,16/02/2002,0,0,0,0,10000000,0,0,0,0,0,0,0,0,0,0,0,0,0,0,0,0,0,0,0,0,0,0,0,0,New South Wales,2002
Tsunami,26/12/2004,26/12/2004,0,0,0,273636,0,0,0,0,0,0,0,0,0,0,0,0,0,0,0,0,0,0,0,0,0,0,0,0,0,Outside Australia,2004
Cyclone,25/12/1974,25/12/1974,35362,41000,650,71,200000000,0,0,200,5000,0,0,0,0,0,0,0,0,0,0,0,20,25,0,0,0,0,0,0,0,Northern Territory,1974
Urban Fire,12/11/2004,12/11/2004,0,0,0,0,20000000,0,0,0,0,0,0,0,0,1,0,0,0,0,0,0,0,0,2,0,0,0,0,0,0,Victoria,2004
Transport,17/09/2004,17/09/2004,0,0,21,0,0,0,0,0,0,0,0,0,0,0,0,0,0,0,0,0,0,0,0,0,0,0,0,0,0,Victoria,2004
Transport,05/08/2004,05/08/2004,0,0,0,3,0,0,0,0,0,0,0,0,0,0,0,0,0,0,0,0,0,0,0,0,0,0,0,0,0,Victoria,2004
Transport,04/03/2004,04/03/2004,0,0,60,0,0,0,0,0,0,0,0,0,0,0,0,0,0,0,8,1,0,0,0,0,0,0,0,0,0,New South Wales,2004
Severe Storm,03/03/2004,31/03/2004,0,0,0,3,0,0,0,0,0,0,0,0,0,0,0,0,0,0,0,0,0,0,0,0,0,0,0,0,0,Northern Territory;Queensland;New South Wales;Western Australia,2004
Transport,02/05/2002,02/05/2002,0,0,0,4,0,0,0,0,0,0,0,0,0,0,0,0,0,0,0,0,0,0,0,0,0,0,0,0,0,New South Wales,2002
Criminal Act,11/09/2001,11/09/2001,0,0,0,2819,0,0,0,0,0,0,0,0,0,0,0,0,0,0,0,0,0,0,0,0,0,0,0,0,0,Outside Australia,2001
Industrial,24/11/1999,24/11/1999,0,0,0,4,0,0,0,0,0,0,0,0,0,0,0,0,0,0,0,0,0,0,0,0,0,0,0,0,0,New South Wales,1999
Flood,27/07/1999,28/07/1999,0,0,0,21,0,0,0,0,0,0,0,0,0,0,0,0,0,0,0,0,0,0,0,0,0,0,0,0,0,Outside Australia,1999
Transport,24/07/1999,24/07/1999,0,0,0,17,0,0,0,0,0,0,0,0,0,0,0,0,0,1,0,0,0,0,0,0,0,0,0,0,0,Outside Australia,1999
Transport,17/06/1999,17/06/1999,0,0,0,17,0,0,0,0,0,0,0,0,0,0,0,0,0,0,0,0,0,0,0,0,0,0,0,0,0,Outside Australia,1999
Severe Storm,16/05/2005,16/05/2005,0,0,0,0,53200000,0,0,0,0,0,0,0,0,0,0,0,0,0,0,0,0,0,0,0,0,0,0,0,0,Western Australia,2005
Hail,19/05/2005,19/05/2005,0,0,0,0,17600000,0,0,0,0,0,0,0,0,0,0,0,0,0,0,0,0,0,0,0,0,0,0,0,0,Queensland,2005
Transport,05/09/2005,05/09/2005,0,0,14,3,0,0,0,0,0,0,0,0,0,0,0,0,0,0,0,0,0,0,0,0,0,0,0,0,0,New South Wales,2005
Criminal Act,07/07/2005,07/07/2005,0,0,700,56,0,0,0,0,0,0,0,0,0,0,0,0,0,0,0,0,0,0,0,0,0,0,0,0,0,Outside Australia,2005
Hail,12/10/2005,12/10/2005,0,0,0,0,61000000,0,0,0,500,0,0,0,0,0,0,0,0,0,0,2000,0,0,0,0,0,0,0,0,0,Queensland,2005
Criminal Act,01/10/2005,01/10/2005,0,0,130,26,0,0,0,0,0,0,0,0,0,0,0,0,0,0,0,0,0,0,0,0,0,0,0,0,0,Outside Australia,2005
Hail,16/10/2005,16/10/2005,0,0,0,0,10000000,0,0,0,0,0,0,0,0,0,0,0,0,0,0,0,0,0,0,0,0,0,0,0,0,Western Australia,2005
Bushfire,30/11/1957,12/04/1957,0,0,0,4,0,0,0,0,158,0,0,0,0,0,0,0,0,0,0,0,0,0,0,0,0,0,0,0,0,New South Wales,1957
Transport,02/07/1949,02/07/1949,0,0,0,18,0,0,0,0,0,0,0,0,0,0,0,0,0,1,0,0,0,0,0,0,0,0,0,0,0,Western Australia,1949
Industrial,06/12/1999,06/12/1999,0,0,1,3,0,0,0,0,0,0,0,0,0,0,0,0,0,0,0,0,0,0,0,0,0,0,0,0,0,New South Wales,1999
Shipwreck,13/07/1873,13/07/1873,0,0,0,4,0,0,0,0,0,0,0,0,0,0,0,0,0,0,0,0,1,0,0,0,0,0,0,0,0,Victoria,1873
Cyclone,19/01/1907,19/01/1907,0,0,0,9,0,0,0,0,0,12,0,0,0,0,0,0,0,0,0,0,0,0,0,0,0,0,0,0,0,Queensland,1907
Industrial,31/07/1972,31/07/1972,0,0,17,17,0,0,0,0,0,0,0,0,0,0,0,0,0,0,0,0,0,0,0,0,0,0,0,0,0,Queensland,1972
Environmental,01/06/1994,01/10/1994,0,0,0,3,0,0,0,0,0,0,0,0,0,0,0,0,0,0,0,0,0,0,0,0,0,0,0,0,0,Queensland,1994
Transport,13/08/1998,13/08/1998,0,0,25,1,0,0,0,0,0,0,0,0,0,0,0,0,0,0,0,0,0,0,0,0,0,0,0,0,0,New South Wales,1998
Shipwreck,09/11/1872,09/11/1872,0,0,0,5,0,0,0,0,0,0,0,0,0,0,0,0,0,0,0,0,0,1,0,0,0,0,0,0,0,Victoria,1872
Flood,27/12/1916,27/12/1916,0,0,0,61,0,0,0,0,0,0,0,0,0,0,0,0,0,0,0,0,0,0,0,0,0,0,0,0,0,Queensland,1916
Severe Storm,21/01/1977,21/01/1977,0,0,0,1,15000000,0,0,0,0,0,0,0,0,0,0,0,0,0,0,0,0,0,0,0,0,0,0,0,0,New South Wales,1977
Flood,22/02/1955,28/02/1955,40000,15000,0,24,0,0,0,5200,58,0,0,0,0,0,0,0,0,0,0,0,0,0,0,0,0,0,0,0,0,New South Wales,1955
Shipwreck,21/10/1854,21/10/1854,0,0,2,7,0,0,0,0,0,0,0,0,0,0,0,0,0,0,0,0,0,0,0,0,0,0,0,0,0,New South Wales,1854
Shipwreck,24/08/1857,24/08/1857,0,0,0,32,0,0,0,0,0,0,0,0,0,0,0,0,0,0,0,0,1,1,0,0,0,0,0,0,0,Victoria,1857
Shipwreck,06/07/2001,06/07/2001,0,0,0,4,0,0,0,0,0,0,0,0,0,0,0,0,0,0,0,0,0,1,0,0,0,0,0,0,0,Queensland,2001
Shipwreck,06/01/1891,06/01/1891,0,0,0,12,0,0,0,0,0,0,0,0,0,0,0,0,0,0,0,0,0,1,0,0,0,0,0,0,0,Victoria,1891
Cyclone,06/01/1897,07/01/1897,0,0,0,28,0,0,0,0,0,0,0,0,0,0,0,0,0,0,0,0,0,22,0,0,0,0,0,0,0,Northern Territory,1897
Shipwreck,22/03/1969,22/03/1969,0,0,20,3,0,0,0,0,0,0,0,0,0,0,0,0,0,0,0,0,0,0,0,0,0,0,0,0,0,Victoria,1969
Transport,11/05/1944,11/05/1944,0,0,27,4,0,9,0,0,0,0,0,0,0,0,0,0,0,0,0,0,0,0,0,0,0,0,0,0,0,South Australia,1944
Severe Storm,18/11/2001,21/11/2001,0,0,0,3,30000000,0,0,2000,0,0,0,0,0,0,0,0,0,0,200,0,0,0,0,0,0,0,0,0,0,New South Wales,2001
Industrial,12/10/1912,12/10/1912,0,0,0,42,0,0,0,0,0,0,0,0,0,0,0,0,0,0,0,0,0,0,0,0,0,0,0,0,0,Tasmania,1912
Shipwreck,12/05/1990,12/05/1990,0,0,1,3,0,0,0,0,0,0,0,0,0,0,0,0,0,0,0,0,0,1,0,0,0,0,0,0,0,Victoria,1990
Bushfire,01/09/1984,02/01/1985,0,0,0,4,25000000,0,0,0,0,0,0,0,0,0,0,0,0,0,0,0,0,0,0,0,0,0,0,40000,0,New South Wales,1984
Severe Storm,04/09/1998,04/10/1998,0,0,0,1,10000000,0,0,80,0,10,0,0,0,0,0,0,0,0,0,0,0,0,5,0,0,0,0,0,0,New South Wales,1998
Severe Storm,24/01/1991,24/01/1991,0,0,0,0,12000000,0,0,0,0,0,0,0,0,0,0,0,0,0,0,0,0,0,0,0,0,0,0,0,0,Victoria,1991
Shipwreck,31/05/1878,31/05/1878,0,0,2,49,0,0,0,0,0,0,0,0,0,0,0,0,0,0,0,0,0,1,0,0,0,0,0,0,0,Victoria,1878
Urban Fire,25/12/1975,25/12/1975,0,0,22,15,0,0,0,0,0,0,1,0,0,1,0,0,0,0,0,0,0,0,0,0,0,0,0,0,0,New South Wales,1975
Shipwreck,25/08/1834,25/08/1834,0,0,0,12,0,0,0,0,0,0,0,0,0,0,0,0,0,0,0,0,0,1,0,0,0,0,0,0,0,New South Wales,1834
Cyclone,16/01/1950,19/01/1950,100,0,0,7,0,0,0,0,0,0,0,0,0,0,0,0,0,0,0,0,0,0,0,0,0,0,0,0,0,New South Wales;Queensland,1950
Cyclone,02/03/1990,02/07/1990,0,0,0,6,33000000,0,0,0,0,0,0,0,0,0,0,0,0,0,0,0,0,0,0,0,0,0,0,0,0,Queensland,1990
Urban Fire,15/01/1995,15/01/1995,0,0,0,8,0,0,0,0,0,0,1,0,0,0,0,0,0,0,0,0,0,0,0,0,0,0,0,0,0,New South Wales,1995
Transport,31/10/1894,31/10/1894,0,0,27,14,0,0,0,0,0,0,0,0,0,0,0,0,0,0,0,0,0,0,0,0,0,0,0,0,0,New South Wales,1894
Shipwreck,30/03/1874,30/03/1874,0,0,1,8,0,0,0,0,0,0,0,0,0,0,0,0,0,0,0,0,0,1,0,0,0,0,0,0,0,Victoria,1874
Industrial,26/06/2000,26/06/2000,0,0,8,3,0,0,0,0,0,0,0,1,0,0,0,0,0,0,0,0,0,0,0,0,0,0,0,0,0,Western Australia,2000
Environmental,01/04/2000,22/08/2001,0,0,0,0,0,0,0,0,0,0,0,0,0,0,0,0,0,0,0,0,0,0,0,0,0,0,0,0,0,Western Australia,2000
Shipwreck,06/01/1942,06/01/1942,0,0,10,21,0,0,0,0,0,0,0,0,0,0,0,0,0,0,0,0,0,1,0,0,0,0,0,0,0,New South Wales,1942
Transport,03/09/1986,03/09/1986,0,0,0,6,0,0,0,0,0,0,0,0,0,0,0,0,0,0,0,0,0,0,0,0,0,0,0,0,0,Victoria,1986
Bushfire,31/12/2005,31/01/2006,0,0,6,4,22400000,0,0,0,57,0,359,0,0,0,0,0,0,0,0,0,0,0,0,0,0,0,0,64265,0,Victoria,2005
Transport,10/01/2006,10/01/2006,0,0,27,6,0,0,0,0,0,0,0,0,0,0,0,0,0,0,0,0,0,0,0,0,0,0,0,0,0,Outside Australia,2006
Flood,01/02/1879,01/02/1879,0,0,0,6,0,0,0,0,0,0,0,0,0,0,0,0,0,0,0,0,0,0,0,0,0,0,0,0,0,Northern Territory,1879
Cyclone,20/02/1954,24/02/1954,0,0,0,26,0,0,0,0,0,0,0,0,0,0,0,0,0,0,0,0,22,0,0,0,0,0,0,0,0,Queensland;New South Wales,1954
Severe Storm,13/10/1998,13/10/1998,0,0,0,0,23000000,0,0,12,0,0,0,0,0,0,0,0,0,0,0,0,0,0,0,0,0,0,0,0,0,Queensland,1998
Shipwreck,19/09/1851,19/09/1851,0,0,0,25,0,0,0,0,0,0,0,0,0,0,0,0,0,0,0,0,0,1,0,0,0,0,0,0,0,Victoria,1851
Cyclone,20/03/2006,20/03/2006,0,0,30,0,540000000,0,0,10000,0,0,0,0,0,0,0,0,0,0,0,0,0,0,0,0,0,0,0,0,0,Queensland,2006
Industrial,25/04/2006,05/09/2006,0,0,2,1,0,0,0,0,0,0,0,0,0,0,0,0,0,0,0,0,0,0,0,0,0,0,0,0,0,Tasmania,2006
Transport,20/11/1989,20/11/1989,0,0,75,0,0,0,0,0,0,0,0,0,0,0,0,0,0,0,0,0,0,0,0,0,0,0,0,0,0,Victoria,1989
Tornado,14/08/1971,14/08/1971,0,0,0,3,0,0,0,0,0,0,0,0,0,0,0,0,0,0,0,0,0,0,0,0,0,0,0,0,0,Queensland,1971
Severe Storm,12/02/1992,13/02/1992,0,0,1,0,118000000,0,0,3000,0,0,0,0,0,0,0,0,0,0,7000,0,0,0,0,0,0,0,0,0,0,New South Wales,1992
Chemical,30/03/2006,30/03/2006,0,0,37,0,0,0,0,0,0,0,0,0,0,0,0,0,0,0,0,0,0,0,0,0,0,0,0,0,0,New South Wales,2006
Shipwreck,10/02/1964,10/02/1964,0,0,232,82,0,0,0,0,0,0,0,0,0,0,0,0,0,0,0,0,0,0,0,0,0,0,0,0,0,New South Wales,1964
Transport,20/04/1908,20/04/1908,0,0,413,44,0,0,0,0,0,0,0,0,0,0,0,0,0,0,0,0,0,0,0,0,0,0,0,0,0,Victoria,1908
Urban Fire,29/04/1981,29/04/1981,0,0,51,16,0,0,0,0,0,0,1,0,0,0,0,0,0,0,0,0,0,0,0,0,0,0,0,0,0,New South Wales,1981
Urban Fire,01/01/1991,01/01/1991,0,0,22,4,0,0,0,0,0,0,0,0,0,0,0,0,0,0,0,0,0,0,0,0,0,0,0,0,0,Victoria,1991
Cyclone,27/03/1978,04/04/1978,0,20,0,5,13000000,0,0,0,0,0,0,0,0,0,0,0,0,0,0,0,0,0,0,0,0,0,0,0,0,Western Australia,1978
Industrial,24/07/1991,24/07/1991,0,0,0,3,0,0,0,0,0,0,0,0,0,0,0,0,0,0,0,0,0,0,0,0,0,0,0,0,0,New South Wales,1991
Hail,14/11/1979,14/11/1979,0,150,71,0,10000000,0,0,0,0,0,0,0,0,0,0,0,0,0,0,0,0,0,0,0,0,0,0,0,0,South Australia,1979
Shipwreck,10/03/1879,11/03/1879,0,0,0,5,0,0,0,0,0,0,0,0,0,0,0,0,0,0,0,0,1,1,0,0,0,0,0,0,0,New South Wales,1879
Bushfire,01/02/1898,02/02/1898,0,2500,0,12,0,0,0,0,0,0,2000,0,0,0,0,0,0,0,0,0,0,0,0,0,0,0,0,0,0,Victoria,1898
Transport,13/02/1938,13/02/1938,0,0,0,19,0,0,0,0,0,0,0,0,0,0,0,0,0,0,0,0,0,1,0,0,0,0,0,0,0,New South Wales,1938
Urban Fire,13/08/1966,13/08/1966,0,0,0,30,0,0,0,0,0,0,1,0,0,0,0,0,0,0,0,0,0,0,0,0,0,0,0,0,0,Victoria,1966
Earthquake,22/01/1988,22/01/1988,0,0,0,0,0,0,0,0,0,0,0,0,0,0,0,0,0,0,0,0,0,0,0,0,0,0,0,0,0,Northern Territory,1988
Cyclone,19/11/1910,19/11/1910,0,0,0,40,0,0,0,70,20,0,0,0,0,0,0,0,0,0,0,0,67,34,0,0,0,0,0,0,0,Western Australia,1910
Shipwreck,01/01/1753,01/01/1753,0,0,0,95,0,0,0,0,0,0,0,0,0,0,0,0,0,0,0,0,0,1,0,0,0,0,0,0,0,Western Australia,1753
Transport,08/05/1943,08/05/1943,0,0,0,25,0,0,0,0,0,0,0,0,0,0,0,0,0,0,0,0,0,0,0,0,0,0,0,0,0,Victoria,1943
Bushfire,17/01/1987,20/01/1987,0,0,20,3,0,0,0,0,0,0,0,0,0,0,0,0,0,0,0,0,0,0,0,0,0,0,0,0,0,New South Wales,1987
Industrial,12/12/1882,12/12/1882,0,0,0,22,0,0,0,0,0,0,0,0,0,0,0,0,0,0,0,0,0,0,0,0,0,0,0,0,0,Victoria,1882
Hail,16/12/1980,16/12/1980,0,0,0,0,15000000,0,0,5000,0,0,0,0,0,0,0,0,0,0,0,0,0,0,0,0,0,0,0,0,0,Queensland,1980
Hail,29/09/1996,29/09/1996,0,0,10,0,104000000,0,0,0,0,5000,0,0,0,0,0,0,0,0,4000,0,0,0,0,0,0,0,0,0,0,New South Wales,1996
Transport,31/12/1968,31/12/1968,0,0,0,26,0,0,0,0,0,0,0,0,0,0,0,0,0,1,0,0,0,0,0,0,0,0,0,0,0,Western Australia,1968
Cyclone,09/03/1903,09/03/1903,0,0,0,10,0,0,0,0,0,0,2,0,0,0,0,0,0,0,0,0,0,0,0,0,0,0,0,0,0,Queensland,1903
Shipwreck,25/02/1915,25/02/1915,0,0,0,9,0,0,0,0,0,0,0,0,0,0,0,0,0,0,0,0,0,4,0,0,0,0,0,0,0,Northern Territory,1915
Bushfire,20/11/1997,20/12/1997,0,0,0,4,0,0,0,0,10,0,0,0,0,0,0,0,0,0,0,0,0,0,0,0,0,0,0,0,0,New South Wales,1997
Shipwreck,26/08/1791,26/08/1791,0,0,91,35,0,0,0,0,0,0,0,0,0,0,0,0,0,0,0,0,0,1,0,0,0,0,0,0,0,Queensland,1791
Landslide,31/01/1928,31/01/1928,0,0,3,6,0,0,0,0,0,0,0,0,0,0,0,0,0,0,0,0,0,0,0,0,0,0,0,0,0,South Australia,1928
Shipwreck,23/05/1874,23/05/1874,0,0,9,79,0,0,0,0,0,0,0,0,0,0,0,0,0,0,0,0,0,1,0,0,0,0,0,0,0,Victoria,1874
Industrial,18/07/1895,18/07/1895,0,0,1,9,0,0,0,0,0,0,0,1,0,0,0,0,0,0,0,0,0,0,0,0,0,0,0,0,0,New South Wales,1895
Flood,31/01/2009,07/02/2009,0,0,0,1,19000000,0,0,3000,0,0,0,0,0,0,0,0,0,0,0,0,0,0,0,0,0,0,0,0,0,Queensland,2009
Bushfire,07/02/2009,08/02/2009,0,0,414,173,1070000000,0,0,0,2029,0,0,0,0,0,0,0,0,0,0,0,0,0,0,61,0,0,0,0,0,Victoria,2009
Environmental,27/01/2009,31/01/2009,0,0,0,374,0,0,0,0,0,0,0,0,0,0,0,0,0,0,0,0,0,0,0,0,0,0,0,0,0,South Australia;Victoria,2009
Flood,20/05/2009,23/05/2009,0,0,0,1,48000000,0,0,0,0,0,0,0,0,0,0,0,0,0,0,0,0,0,0,0,0,0,0,0,0,New South Wales,2009
Criminal Act,17/07/2009,17/07/2009,0,0,53,9,0,0,0,0,0,0,0,0,0,0,0,0,0,0,0,0,0,0,0,0,0,0,0,0,0,Outside Australia,2009
Epidemic,05/09/2009,12/01/2010,0,0,0,191,0,0,0,0,0,0,0,0,0,0,0,0,0,0,0,0,0,0,0,0,0,0,0,0,0,Northern Territory;Queensland;New South Wales;Australian Capital Territory;South Australia;Western Australia;Tasmania;Victoria,2009
Earthquake,30/09/2009,30/09/2009,0,0,1214,1117,0,0,0,78604,135448,0,485,0,0,0,0,21,0,0,0,0,0,0,0,0,0,0,0,0,0,Outside Australia,2009
Tsunami,29/09/2009,29/09/2009,0,0,0,144,0,0,0,0,0,0,0,0,0,0,0,0,0,0,0,0,0,0,0,0,0,0,0,0,0,Outside Australia,2009
Flood,31/03/2009,04/02/2009,0,0,0,0,37000000,0,0,0,0,0,0,0,0,0,0,0,0,0,0,0,0,0,0,0,0,0,0,0,0,New South Wales,2009
Severe Storm,16/11/2008,22/11/2008,0,0,0,1,309000000,0,0,0,0,0,0,0,0,0,0,0,0,0,0,0,0,0,0,0,0,0,0,0,0,Queensland,2008
Chemical,03/06/2008,03/06/2008,0,0,0,0,230000000,0,0,0,0,0,0,0,0,0,0,0,0,0,0,0,0,0,1,0,0,0,0,0,0,Western Australia,2008
Severe Storm,02/04/2008,02/04/2008,0,0,0,2,65000000,0,0,0,0,0,0,0,0,0,0,0,0,0,0,0,0,0,0,0,0,0,0,0,0,Tasmania;South Australia;Victoria,2008
Flood,14/02/2008,17/02/2008,0,0,0,0,410000000,0,0,4000,0,0,0,0,0,0,0,0,0,0,0,0,0,0,0,0,0,0,0,0,0,Queensland,2008
Flood,10/02/2008,18/02/2008,0,0,0,0,410000000,0,0,4000,0,0,0,0,0,0,0,0,0,0,0,0,0,0,0,0,0,0,0,0,0,Queensland,2008
Flood,04/01/2008,11/01/2008,0,0,0,0,15000000,0,0,0,0,0,0,0,0,0,0,0,0,0,0,0,0,0,0,0,0,0,0,0,0,New South Wales,2008
Flood,01/01/2008,31/01/2008,0,0,0,0,70000000,0,0,0,0,0,0,0,0,0,0,0,0,0,0,0,0,0,0,0,0,0,0,0,0,Queensland,2008
Bushfire,28/12/2007,01/08/2008,0,0,0,3,0,0,0,0,0,0,0,0,0,0,0,0,0,0,0,0,0,0,0,0,0,0,0,0,0,Western Australia,2007
Flood,27/12/2007,01/07/2008,0,0,0,0,15000000,0,0,0,0,0,0,0,0,0,0,0,0,0,0,0,0,0,0,0,0,0,0,0,0,Queensland,2007
Hail,09/12/2007,09/12/2007,0,0,30,0,415000000,0,0,0,0,0,0,0,0,0,0,0,0,0,0,0,0,0,0,0,0,0,0,0,0,New South Wales,2007
Flood,30/11/2010,17/01/2011,5900,0,0,33,2380000000,0,0,3600,0,29000,0,0,3572,0,0,0,0,0,0,0,0,0,0,0,0,0,0,0,0,Queensland,2010
Bushfire,05/02/2011,07/02/2011,0,0,12,0,35000000,0,0,39,72,0,0,0,0,0,0,0,0,0,0,0,0,0,0,0,0,0,0,0,0,Western Australia,2011
Cyclone,02/03/2011,02/03/2011,0,0,0,1,1412000000,0,0,1000,0,0,0,0,0,0,0,0,0,0,0,0,0,0,0,0,0,0,0,0,0,Queensland,2011
Flood,18/04/1990,21/04/1990,2300,0,60,6,30000000,0,0,500,0,0,0,0,0,0,0,0,0,0,0,0,0,0,0,0,0,0,0,0,0,Queensland,1990
Severe Storm,04/02/2011,06/02/2011,6000,0,1,0,418670000,0,0,0,0,20,0,0,0,0,0,0,0,0,0,0,0,0,0,0,0,0,0,0,0,Victoria,2011
Severe Storm,06/03/2010,07/03/2010,0,0,0,0,1044000000,0,0,0,0,0,0,0,0,0,0,0,0,0,0,0,0,0,0,0,0,0,0,0,0,Victoria,2010
Flood,12/01/2011,18/01/2011,0,0,0,1,126495000,0,0,0,0,0,0,0,0,0,0,0,0,0,0,0,0,0,0,0,0,0,0,0,0,Victoria,2011
Earthquake,11/03/2011,11/03/2011,200000,0,5388,15467,0,0,0,0,0,0,0,0,0,0,0,0,0,0,0,0,0,0,0,0,0,0,0,0,0,Outside Australia,2011
Severe Storm,22/03/2010,22/03/2010,100,0,0,0,1053000000,0,0,0,0,0,0,0,0,0,0,0,0,0,0,0,0,0,0,0,0,0,0,0,0,Western Australia,2010
Flood,28/02/2010,03/05/2010,0,0,0,0,46700000,0,0,0,0,0,0,0,0,0,0,0,0,0,0,0,0,0,0,0,0,0,0,0,0,Queensland,2010
Flood,01/10/1998,01/12/1998,0,0,0,1,71000000,0,0,0,14,0,0,0,0,0,0,0,0,0,0,0,0,7,0,0,0,0,0,0,0,Queensland,1998
Environmental,01/01/1991,01/10/1996,0,0,0,0,0,0,0,0,0,0,0,0,0,0,0,0,0,0,0,0,0,0,0,0,0,0,0,0,0,Northern Territory;Queensland;New South Wales;Australian Capital Territory;South Australia;Western Australia;Tasmania;Victoria,1991
Flood,01/12/2009,14/02/2009,0,0,0,0,19000000,0,0,0,0,0,0,0,0,0,0,0,0,0,0,0,0,0,0,0,0,0,0,0,0,Queensland,2009
Flood,29/06/2005,30/06/2005,3000,0,0,1,25000000,0,0,0,0,0,0,0,0,0,0,0,0,0,0,0,0,0,0,0,0,0,0,0,0,New South Wales,2005
Landslide,08/06/2007,08/06/2007,0,0,0,5,0,0,0,0,0,0,0,0,0,0,0,0,0,0,0,0,0,0,0,0,0,0,0,0,0,New South Wales,2007
Bushfire,09/10/2002,09/10/2002,0,0,0,0,25000000,0,0,11,10,0,0,0,0,0,0,0,0,0,0,0,0,0,0,0,0,0,0,0,0,New South Wales,2002
Industrial,07/08/1994,07/08/1994,0,0,0,11,0,0,0,0,0,0,0,0,0,0,0,0,0,0,0,0,0,0,0,0,0,0,0,0,0,Queensland,1994
Bushfire,03/11/1980,03/11/1980,0,0,0,5,0,0,0,0,0,0,0,0,0,0,0,0,0,0,0,1,0,0,0,0,0,0,0,0,0,New South Wales,1980
Flood,29/06/2005,30/06/2005,0,0,0,2,53900000,0,0,0,0,0,0,0,0,0,0,0,0,0,0,0,0,0,0,0,0,0,0,0,0,Queensland,2005
Severe Storm,06/01/2001,06/01/2001,0,0,0,0,15000000,0,0,0,0,400,0,0,0,0,0,0,0,0,150,0,0,0,0,0,0,0,0,0,0,New South Wales,2001
Industrial,23/03/1887,23/03/1887,0,0,0,81,0,0,0,0,0,0,0,0,0,0,0,0,0,0,0,0,0,0,0,0,0,0,0,0,0,New South Wales,1887
Severe Storm,16/01/2002,16/01/2002,0,0,0,0,10000000,0,0,0,0,0,0,0,0,0,0,0,0,0,0,0,0,0,0,0,0,0,0,0,0,New South Wales,2002
Urban Fire,29/12/1990,29/12/1990,0,0,0,5,0,0,0,0,0,0,1,0,0,0,0,0,0,0,0,0,0,0,0,0,0,0,0,0,0,Queensland,1990
Transport,10/01/1994,10/01/1994,0,0,38,12,0,0,0,0,0,0,0,0,0,0,0,0,0,0,0,0,0,0,0,0,0,0,0,0,0,Queensland,1994
Transport,30/01/1913,30/01/1913,0,0,0,6,0,0,0,0,0,0,0,0,0,0,0,0,0,0,0,0,0,0,0,0,0,0,0,0,0,Queensland,1913
Transport,22/09/1966,22/09/1966,0,0,0,24,0,0,0,0,0,0,0,0,0,0,0,0,0,1,0,0,0,0,0,0,0,0,0,0,0,Queensland,1966
Industrial,14/10/1904,14/10/1904,0,0,0,7,0,0,0,0,0,0,0,0,0,0,0,0,0,0,0,0,0,0,0,0,0,0,0,0,0,Queensland,1904
Transport,07/06/1925,07/06/1925,0,0,53,10,0,0,0,0,0,0,0,0,0,0,0,0,0,0,0,0,0,0,0,0,0,0,0,0,0,Queensland,1925
Transport,07/05/2005,07/05/2005,0,0,0,15,0,0,0,0,0,0,0,0,0,0,0,0,0,1,0,0,0,0,0,0,0,0,0,0,0,Queensland,2005
Transport,15/11/2004,15/11/2004,0,0,100,0,0,0,0,0,0,0,0,0,0,0,0,0,0,0,0,0,0,0,0,0,0,0,0,0,0,Queensland,2004
Transport,26/02/1960,26/02/1960,0,0,43,7,0,0,1,0,0,0,0,0,0,0,1,0,0,0,0,0,0,0,0,0,0,0,0,0,0,Queensland,1960
Transport,13/02/1896,13/02/1896,0,0,0,57,0,0,0,0,0,0,0,0,0,0,0,0,0,0,0,0,0,1,0,0,0,0,0,0,0,Queensland,1896
Transport,10/03/1949,10/03/1949,0,0,0,21,0,0,0,0,0,0,0,0,0,0,0,0,0,1,0,0,0,0,0,0,0,0,0,0,0,Queensland,1949
Transport,04/02/1987,04/02/1987,0,0,30,8,0,0,0,0,0,0,0,0,0,0,0,0,0,0,0,1,0,0,0,0,0,0,0,0,0,Queensland,1987
Transport,11/05/1990,11/05/1990,0,0,0,11,0,0,0,0,0,0,0,0,0,0,0,0,0,1,0,0,0,0,0,0,0,0,0,0,0,Queensland,1990
Transport,25/09/1990,25/09/1990,0,0,38,11,0,0,0,0,0,0,0,0,0,0,0,0,0,0,0,1,0,0,0,0,0,0,0,0,0,Queensland,1990
Transport,10/06/1960,10/06/1960,0,0,0,0,0,0,0,0,0,0,0,0,0,0,0,0,0,1,0,0,0,0,0,0,0,0,0,0,0,Queensland,1960
Transport,18/10/1947,18/10/1947,0,0,15,6,0,0,0,0,0,0,0,0,0,0,0,0,0,0,0,0,0,0,0,0,0,0,0,0,0,Queensland,1947
Transport,01/12/1956,01/12/1956,0,0,10,5,0,1,1,0,0,0,0,0,0,0,0,0,0,0,0,0,0,0,0,0,0,0,0,0,0,Queensland,1956
Transport,12/06/1996,12/06/1996,0,0,12,18,0,0,0,0,0,0,0,0,0,0,0,0,0,2,0,0,0,0,0,0,0,0,0,0,0,Queensland,1996
Transport,24/07/2000,24/07/2000,0,0,0,5,0,0,0,0,0,0,0,0,0,0,0,0,0,1,0,0,0,0,0,0,0,0,0,0,0,Queensland,2000
Bushfire,14/11/1954,14/11/1954,0,0,0,3,0,0,0,0,0,0,0,0,0,0,0,0,0,0,0,0,0,0,0,0,0,0,0,0,0,Queensland,1954
Urban Fire,18/08/2002,18/08/2002,0,0,6,3,0,0,0,0,0,0,2,0,0,0,0,0,0,0,0,0,0,0,0,2,0,0,0,0,0,Queensland,2002
Cyclone,02/04/2000,04/04/2000,0,0,0,0,15000000,0,0,0,0,0,0,0,0,0,0,0,0,0,0,0,0,0,0,0,0,0,0,0,0,Queensland,2000
Cyclone,27/02/2000,03/09/2000,0,0,0,1,11000000,0,0,0,0,0,0,0,0,0,0,0,0,0,0,0,0,0,0,0,0,0,0,0,0,Queensland,2000
Flood,07/04/1988,12/04/1988,0,0,0,0,25000000,0,0,0,0,0,0,0,0,0,0,0,0,0,0,0,0,0,0,0,0,0,0,0,0,New South Wales,1988
Severe Storm,30/06/2005,30/06/2005,0,0,0,1,25000000,0,0,0,0,0,0,0,0,0,0,0,0,0,0,0,0,0,0,0,0,0,0,0,0,New South Wales,2005
Severe Storm,23/11/1996,23/11/1996,0,0,0,1,20000000,0,0,0,0,0,0,0,0,0,0,0,0,0,0,0,0,0,0,0,0,0,0,0,0,New South Wales,1996
Flood,10/03/1993,10/04/1993,0,0,0,0,12000000,3000,0,0,0,500,0,0,0,0,5,0,0,0,0,0,0,0,0,0,2000,0,0,0,0,Victoria,1993
Urban Fire,24/08/2011,24/08/2011,0,0,2,11,0,0,0,0,1,0,0,0,0,0,0,0,0,0,0,2,0,0,0,0,0,0,0,0,0,Queensland,2011
Transport,05/05/1947,05/05/1947,0,0,38,16,0,0,1,0,0,0,0,0,0,0,0,0,0,0,0,0,0,0,0,0,0,0,0,0,0,Queensland,1947
Cyclone,04/04/1989,20/04/1989,0,0,0,3,26000000,0,0,0,0,0,0,0,0,0,0,0,0,0,0,0,0,0,0,0,0,0,0,0,0,New South Wales;Queensland,1989
Shipwreck,27/08/1840,27/08/1840,0,0,0,3,0,0,0,0,0,0,0,0,0,0,0,0,0,0,0,0,0,1,0,0,0,0,0,0,0,Tasmania,1840
Shipwreck,20/09/1838,20/09/1838,0,0,0,18,0,0,0,0,0,0,0,0,0,0,0,0,0,0,0,0,0,1,0,0,0,0,0,0,0,Tasmania,1838
Shipwreck,17/05/1838,17/05/1838,0,0,0,6,0,0,0,0,0,0,0,0,0,0,0,0,0,0,0,0,0,1,0,0,0,0,0,0,0,Tasmania,1838
Shipwreck,27/04/1838,27/04/1838,0,0,0,15,0,0,0,0,0,0,0,0,0,0,0,0,0,0,0,0,0,1,0,0,0,0,0,0,0,Tasmania,1838
Shipwreck,05/05/1837,05/05/1837,0,0,0,4,0,0,0,0,0,0,0,0,0,0,0,0,0,0,0,0,0,0,0,0,0,0,0,0,0,Tasmania,1837
Shipwreck,16/07/1835,16/07/1835,0,0,0,17,0,0,0,0,0,0,0,0,0,0,0,0,0,0,0,0,0,1,0,0,0,0,0,0,0,Tasmania,1835
Shipwreck,14/05/1835,14/05/1835,0,0,0,218,0,0,0,0,0,0,0,0,0,0,0,0,0,0,0,0,0,1,0,0,0,0,0,0,0,Tasmania,1835
Shipwreck,04/12/1835,04/12/1835,0,0,0,133,0,0,0,0,0,0,0,0,0,0,0,0,0,0,0,0,0,1,0,0,0,0,0,0,0,Tasmania,1835
Shipwreck,30/06/1826,30/06/1826,0,0,0,13,0,0,0,0,0,0,0,0,0,0,0,0,0,0,0,0,0,1,0,0,0,0,0,0,0,Tasmania,1826
Shipwreck,21/05/1854,21/05/1854,0,0,0,17,0,0,0,0,0,0,0,0,0,0,0,0,0,0,0,0,0,1,0,0,0,0,0,0,0,Tasmania,1854
Shipwreck,08/04/1845,08/04/1845,0,0,0,408,0,0,0,0,0,0,0,0,0,0,0,0,0,0,0,0,0,1,0,0,0,0,0,0,0,Tasmania,1845
Shipwreck,21/05/1842,21/05/1842,0,0,0,8,0,0,0,0,0,0,0,0,0,0,0,0,0,0,0,0,0,0,0,0,0,0,0,0,0,Tasmania,1842
Shipwreck,27/10/1848,27/10/1848,0,0,0,16,0,0,0,0,0,0,0,0,0,0,0,0,0,0,0,0,0,0,0,0,0,0,0,0,0,Tasmania,1848
Shipwreck,08/09/1851,08/09/1851,0,0,0,3,0,0,0,0,0,0,0,0,0,0,0,0,0,0,0,0,0,1,0,0,0,0,0,0,0,Tasmania,1851
Shipwreck,19/02/1853,19/02/1853,0,0,0,9,0,0,0,0,0,0,0,0,0,0,0,0,0,0,0,0,0,1,0,0,0,0,0,0,0,Tasmania,1853
Shipwreck,29/04/1853,29/04/1853,0,0,0,6,0,0,0,0,0,0,0,0,0,0,0,0,0,0,0,0,0,1,0,0,0,0,0,0,0,Tasmania,1853
Severe Storm,28/09/2011,29/09/2011,0,0,0,0,0,0,0,0,0,0,0,0,0,0,0,0,0,0,0,0,0,0,0,0,0,0,0,0,0,Victoria,2011
Shipwreck,13/07/1852,13/07/1852,0,0,0,8,0,0,0,0,0,0,0,0,0,0,0,0,0,0,0,0,0,1,0,0,0,0,0,0,0,Tasmania,1852
Shipwreck,21/03/1854,21/03/1854,0,0,0,4,0,0,0,0,0,0,0,0,0,0,0,0,0,0,0,0,0,1,0,0,0,0,0,0,0,Tasmania,1854
Shipwreck,31/03/1854,31/03/1854,0,0,0,11,0,0,0,0,0,0,0,0,0,0,0,0,0,0,0,0,0,1,0,0,0,0,0,0,0,Tasmania,1854
Shipwreck,28/05/1855,28/05/1855,0,0,0,4,0,0,0,0,0,0,0,0,0,0,0,0,0,0,0,0,0,0,0,0,0,0,0,0,0,Tasmania,1855
Shipwreck,29/08/1863,29/08/1863,0,0,0,29,0,0,0,0,0,0,0,0,0,0,0,0,0,0,0,0,0,1,0,0,0,0,0,0,0,Tasmania,1863
Shipwreck,11/07/1884,11/07/1884,0,0,0,3,0,0,0,0,0,0,0,0,0,0,0,0,0,0,0,0,0,1,0,0,0,0,0,0,0,Tasmania,1884
Shipwreck,04/12/1861,04/12/1861,0,0,0,4,0,0,0,0,0,0,0,0,0,0,0,0,0,0,0,0,0,1,0,0,0,0,0,0,0,Tasmania,1861
Shipwreck,28/08/1863,28/08/1863,0,0,0,5,0,0,0,0,0,0,0,0,0,0,0,0,0,0,0,0,0,1,0,0,0,0,0,0,0,Tasmania,1863
Shipwreck,20/06/1904,20/06/1904,0,0,0,9,0,0,0,0,0,0,0,0,0,0,0,0,0,0,0,0,0,1,0,0,0,0,0,0,0,Tasmania,1904
Shipwreck,05/11/1904,05/11/1904,0,0,0,17,0,0,0,0,0,0,0,0,0,0,0,0,0,0,0,0,0,1,0,0,0,0,0,0,0,Tasmania,1904
Shipwreck,15/11/1898,15/11/1898,0,0,0,3,0,0,0,0,0,0,0,0,0,0,0,0,0,0,0,0,0,1,0,0,0,0,0,0,0,Tasmania,1898
Shipwreck,06/05/1908,06/05/1908,0,0,0,27,0,0,0,0,0,0,0,0,0,0,0,0,0,0,0,0,0,1,0,0,0,0,0,0,0,Tasmania,1908
Shipwreck,13/08/1907,13/08/1907,0,0,0,6,0,0,0,0,0,0,0,0,0,0,0,0,0,0,0,0,0,1,0,0,0,0,0,0,0,Tasmania,1907
Shipwreck,12/09/1920,12/09/1920,0,0,0,12,0,0,0,0,0,0,0,0,0,0,0,0,0,0,0,0,0,1,0,0,0,0,0,0,0,Tasmania,1920
Shipwreck,10/10/1907,10/10/1907,0,0,0,11,0,0,0,0,0,0,0,0,0,0,0,0,0,0,0,0,0,1,0,0,0,0,0,0,0,Tasmania,1907
Shipwreck,04/01/1990,04/01/1990,0,0,0,6,0,0,0,0,0,0,0,0,0,0,0,0,0,0,0,0,0,1,0,0,0,0,0,0,0,Tasmania,1990
Urban Fire,18/11/2011,18/11/2011,0,0,32,10,0,0,0,0,0,1,0,0,0,0,0,0,0,0,0,0,0,0,0,0,0,0,0,0,0,New South Wales,2011
Bushfire,23/11/2011,12/06/2011,0,0,0,0,53000000,0,0,0,32,0,13,0,0,0,0,0,0,0,0,0,0,0,0,0,0,0,0,0,0,Western Australia,2011
Flood,27/11/2011,12/04/2011,0,0,0,1,0,0,0,0,0,0,0,0,0,0,0,0,0,0,0,0,0,0,0,0,0,0,0,0,0,New South Wales,2011
Shipwreck,08/10/1834,08/10/1834,0,0,0,15,0,0,0,0,0,0,0,0,0,0,0,0,0,0,0,0,0,1,0,0,0,0,0,0,0,New South Wales,1834
Shipwreck,27/06/1950,27/06/1950,0,0,0,17,0,0,0,0,0,0,0,0,0,0,0,0,0,0,0,0,0,0,0,0,0,0,0,0,0,New South Wales,1950
Bushfire,01/08/2011,31/10/2011,0,0,0,0,0,0,0,0,0,0,0,0,0,0,0,0,0,0,0,0,0,0,0,0,0,0,0,0,0,Queensland,2011
Bushfire,20/02/1980,20/02/1980,0,0,0,0,13000000,0,0,0,51,0,1,0,0,0,0,0,0,0,0,0,0,0,0,0,0,75,0,0,0,South Australia,1980
Shipwreck,15/12/2010,15/12/2010,0,0,2,50,0,0,0,0,0,0,0,0,0,0,0,0,0,0,0,0,0,1,0,0,0,0,0,0,0,Outside Australia,2010
Severe Storm,25/12/2011,26/12/2011,0,0,0,0,728640000,0,0,0,0,0,0,0,0,0,0,0,0,0,0,0,0,0,0,0,0,0,0,0,0,Victoria,2011
Complex Emergencies,25/12/2011,27/12/2011,0,0,2,0,0,0,1,0,0,0,0,0,0,0,0,0,0,0,0,0,0,0,0,0,0,0,0,0,0,Northern Territory,2011
Shipwreck,20/01/1942,20/01/1942,0,0,0,75,0,0,0,0,0,0,0,0,0,0,0,0,0,0,0,0,0,1,0,0,0,0,0,0,0,Northern Territory,1942
Shipwreck,06/08/1943,06/08/1943,0,0,5,3,0,0,0,0,0,0,0,0,0,0,0,0,0,0,0,0,0,1,0,0,0,0,0,0,0,Northern Territory,1943
Shipwreck,24/12/1974,24/12/1974,0,0,0,3,0,0,0,0,0,0,0,0,0,0,0,0,0,0,0,0,0,1,0,0,0,0,0,0,0,Northern Territory,1974
Shipwreck,24/12/1974,24/12/1974,0,0,0,5,0,0,0,0,0,0,0,0,0,0,0,0,0,0,0,0,0,1,0,0,0,0,0,0,0,Northern Territory,1974
Shipwreck,25/11/1839,25/11/1839,0,0,0,12,0,0,0,0,0,0,0,0,0,0,0,0,0,0,0,0,0,1,0,0,0,0,0,0,0,Northern Territory,1839
Shipwreck,12/01/1948,12/01/1948,0,0,0,12,0,0,0,0,0,0,0,0,0,0,0,0,0,0,0,0,0,2,0,0,0,0,0,0,0,Northern Territory,1948
Environmental,30/12/2011,01/04/2012,0,0,45,0,0,0,0,0,0,0,0,0,0,0,0,0,0,0,0,0,0,0,0,0,0,0,0,0,0,South Australia,2011
Complex Emergencies,06/02/1938,06/02/1938,0,0,95,5,0,0,0,0,0,0,0,0,0,0,0,0,0,0,0,0,0,0,0,0,0,0,0,0,0,New South Wales,1938
Shipwreck,03/11/1927,03/11/1927,0,0,0,40,0,0,0,0,0,0,0,0,0,0,0,0,0,0,0,0,0,1,0,0,0,0,0,0,0,New South Wales,1927
Shipwreck,26/03/1935,26/03/1935,0,0,0,141,0,0,0,0,0,0,0,0,0,0,0,0,0,0,0,0,0,0,0,0,0,0,0,0,0,Western Australia,1935
Transport,29/01/2001,29/01/2001,0,0,26,1,0,0,0,0,0,0,0,0,0,0,0,0,0,0,0,0,0,0,0,0,0,0,0,0,0,South Australia,2001
Transport,24/10/2002,24/10/2002,0,0,26,4,0,0,0,0,0,0,0,0,0,0,0,0,0,0,0,0,0,0,0,0,0,0,0,0,0,South Australia,2002
Hail,22/01/1991,22/01/1991,0,0,0,0,30000000,0,0,0,0,0,0,0,0,0,0,0,0,0,0,0,0,0,0,0,0,0,0,0,0,South Australia,1991
Flood,06/08/1956,12/01/1956,0,0,0,0,0,0,0,0,0,0,0,0,0,0,0,0,0,0,0,0,0,0,0,0,0,0,0,0,0,South Australia,1956
Environmental,31/12/1959,03/01/1960,0,0,18,13,0,0,0,0,0,0,0,0,0,0,0,0,0,0,0,0,0,0,0,0,0,0,0,0,0,South Australia,1959
Flood,24/01/2012,13/03/2012,0,0,0,3,108212000,0,0,0,0,0,0,0,0,0,0,0,0,0,0,0,0,0,0,0,0,0,0,0,47247000,New South Wales,2012
Flood,24/01/2012,13/03/2012,0,0,0,2,124688000,0,0,0,0,0,0,0,0,0,0,0,0,0,0,0,0,0,0,0,0,0,0,0,11749000,Queensland,2012
Shipwreck,15/04/1991,15/04/1991,0,0,0,27,0,0,0,0,0,0,0,0,0,0,0,0,0,0,0,0,0,0,0,0,0,0,0,0,0,Western Australia,1991
Flood,26/02/2012,15/03/2012,0,0,0,0,108212000,0,0,0,0,0,0,0,0,0,0,0,0,0,0,0,0,0,0,0,0,0,0,0,7773000,Victoria,2012
Cyclone,21/05/1988,22/05/1988,0,0,0,0,20000000,0,0,0,0,0,0,0,0,0,0,0,0,0,0,0,0,0,0,0,0,0,0,0,0,Western Australia,1988
Environmental,12/01/1907,28/02/1908,0,0,0,246,0,0,0,0,0,0,0,0,0,0,0,0,0,0,0,0,0,0,0,0,0,0,0,0,0,Northern Territory;Queensland;New South Wales;Australian Capital Territory;South Australia;Western Australia;Tasmania;Victoria,1907
Environmental,12/01/1895,28/02/1896,0,0,0,431,0,0,0,0,0,0,0,0,0,0,0,0,0,0,0,0,0,0,0,0,0,0,0,0,0,Queensland;New South Wales;Australian Capital Territory;South Australia;Western Australia;Northern Territory;Tasmania;Victoria,1895
Environmental,12/01/1913,28/02/1914,0,0,0,122,0,0,0,0,0,0,0,0,0,0,0,0,0,0,0,0,0,0,0,0,0,0,0,0,0,Queensland;New South Wales;Australian Capital Territory;South Australia;Western Australia;Northern Territory;Tasmania;Victoria,1913
Environmental,12/01/1920,28/02/1921,0,0,0,147,0,0,0,0,0,0,0,0,0,0,0,0,0,0,0,0,0,0,0,0,0,0,0,0,0,Queensland;New South Wales;Australian Capital Territory;South Australia;Western Australia;Northern Territory;Tasmania;Victoria,1920
Environmental,12/01/1938,28/02/1939,0,0,0,438,0,0,0,0,0,0,0,0,0,0,0,0,0,0,0,0,0,0,0,0,0,0,0,0,0,Queensland;New South Wales;Australian Capital Territory;South Australia;Western Australia;Northern Territory;Tasmania;Victoria,1938
Environmental,12/01/1939,28/02/1940,0,0,0,112,0,0,0,0,0,0,0,0,0,0,0,0,0,0,0,0,0,0,0,0,0,0,0,0,0,Queensland;New South Wales;Australian Capital Territory;South Australia;Western Australia;Northern Territory;Tasmania;Victoria,1939
Environmental,12/01/1959,28/02/1960,0,0,0,98,0,0,0,0,0,0,0,0,0,0,0,0,0,0,0,0,0,0,0,0,0,0,0,0,0,Queensland;New South Wales;Australian Capital Territory;South Australia;Western Australia;Northern Territory;Tasmania;Victoria,1959
Environmental,12/01/1972,28/02/1973,0,0,0,99,0,0,0,0,0,0,0,0,0,0,0,0,0,0,0,0,0,0,0,0,0,0,0,0,0,Queensland;New South Wales;Australian Capital Territory;South Australia;Western Australia;Northern Territory;Tasmania;Victoria,1972
Environmental,12/01/1926,28/02/1927,0,0,0,130,0,0,0,0,0,0,0,0,0,0,0,0,0,0,0,0,0,0,0,0,0,0,0,0,0,Queensland;New South Wales;Australian Capital Territory;South Australia;Western Australia;Northern Territory;Tasmania;Victoria,1926
Transport,30/06/1948,30/06/1948,0,0,18,4,0,7,0,0,0,0,0,0,0,0,0,0,0,0,0,0,0,0,0,0,0,0,0,0,0,New South Wales,1948
Bushfire,18/01/2003,19/01/2003,0,0,435,4,350000000,0,0,0,488,0,0,0,0,0,0,0,0,0,0,0,0,0,0,0,0,0,0,0,0,Australian Capital Territory,2003
Transport,11/08/2009,11/08/2009,0,0,0,13,0,0,0,0,0,0,0,0,0,0,0,0,0,0,0,0,0,0,0,0,0,0,0,0,0,Outside Australia,2009
Earthquake,22/02/2011,22/02/2011,0,0,6659,185,370000000,0,0,100000,3500,0,0,0,0,0,0,0,0,0,0,0,0,0,0,0,0,0,0,0,0,Outside Australia,2011
Flood,04/06/2012,22/06/2012,0,0,0,0,0,0,0,0,0,0,0,0,0,0,0,0,0,0,0,0,0,0,0,0,0,0,0,0,0,Victoria,2012
Severe Storm,07/06/2012,13/06/2012,0,0,0,1,0,0,0,0,0,0,0,0,0,0,0,0,0,0,0,0,0,0,0,0,0,0,0,0,0,Western Australia,2012
Shipwreck,27/06/2012,27/06/2012,0,0,0,4,0,0,0,0,0,0,0,0,0,0,0,0,0,0,0,0,0,1,0,0,0,0,0,0,0,Outside Australia,2012
Shipwreck,16/04/2009,16/04/2009,0,0,24,5,0,0,0,0,0,0,0,0,0,0,0,0,0,0,0,0,0,1,0,0,0,0,0,0,0,Outside Australia,2009
Shipwreck,19/10/2001,19/10/2001,0,0,45,353,0,0,0,0,0,0,0,0,0,0,0,0,0,0,0,0,0,1,0,0,0,0,0,0,0,Outside Australia,2001
Shipwreck,21/06/2012,21/06/2012,0,0,110,100,0,0,0,0,0,0,0,0,0,0,0,0,0,0,0,0,0,0,0,0,0,0,0,0,0,Outside Australia,2012
Landslide,27/09/1996,27/09/1996,0,0,3,9,0,0,0,0,0,0,0,0,0,0,0,0,0,0,0,0,0,0,0,0,0,0,0,0,0,Western Australia,1996
Transport,01/09/1973,01/09/1973,0,0,21,18,0,0,0,0,0,0,0,0,0,0,0,0,0,0,0,1,0,0,0,0,0,0,0,0,0,New South Wales,1973
Transport,08/09/2003,08/09/2003,0,0,24,0,0,0,0,0,0,0,0,0,0,0,0,0,0,0,0,0,0,0,0,0,0,0,0,0,0,Outside Australia,2003
Transport,10/03/1946,10/03/1946,0,0,0,25,0,0,0,0,0,0,0,0,0,0,0,0,0,1,0,0,0,0,0,0,0,0,0,0,0,Tasmania,1946
Flood,14/02/1863,23/02/1863,0,0,0,10,0,0,0,0,0,0,0,0,0,0,0,0,0,0,0,0,0,0,0,0,0,0,0,0,0,Queensland;New South Wales,1863
Shipwreck,11/04/1925,11/04/1925,0,0,0,5,0,0,0,0,0,0,0,0,0,0,0,0,0,0,0,0,0,0,0,0,0,0,0,0,0,South Australia,1925
Industrial,21/06/2006,21/06/2006,0,0,0,0,0,0,0,0,0,0,0,0,0,0,0,0,0,0,0,0,0,0,0,0,0,0,0,0,0,Tasmania,2006
Shipwreck,05/05/1898,05/05/1898,0,0,0,21,0,0,0,0,0,0,0,0,0,0,0,0,0,0,0,0,0,1,0,0,0,0,0,0,0,New South Wales,1898
Bushfire,08/06/2000,08/06/2000,0,0,3,4,0,0,0,0,0,0,0,0,0,0,0,0,0,0,0,0,0,0,0,0,0,0,0,0,0,New South Wales,2000
Flood,10/03/2011,14/03/2011,0,0,0,0,0,0,0,0,76,0,0,0,0,0,0,0,0,0,0,0,0,0,0,0,0,0,0,0,0,Western Australia,2011
Environmental,01/01/1996,01/04/2012,0,0,0,0,0,0,0,0,0,0,0,0,0,0,0,0,0,0,0,0,0,0,0,0,0,0,0,0,0,Queensland;New South Wales;Australian Capital Territory;Victoria;South Australia;Western Australia;Outside Australia;Northern Territory;Tasmania,1996
Bushfire,03/01/2013,14/01/2013,1000,0,0,1,87100000,0,0,0,203,0,212,0,0,0,0,0,0,0,0,0,0,0,0,0,0,0,0,0,7845400,Tasmania,2013
Epidemic,25/12/2012,02/12/2013,0,0,26,3,0,0,0,0,0,0,0,0,0,0,0,0,0,0,0,0,0,0,0,0,0,0,0,0,0,Queensland;New South Wales;Australian Capital Territory;Victoria;South Australia;Western Australia;Northern Territory;Tasmania,2012
Bushfire,07/01/2013,20/01/2013,0,0,1,0,35000000,0,0,0,51,0,0,0,0,0,0,0,0,0,0,0,0,0,0,0,0,0,0,12000,1015600,New South Wales,2013
Cyclone,21/01/2013,29/01/2013,9000,0,0,6,1098000000,0,0,0,0,0,0,0,0,0,0,0,0,0,0,0,0,0,0,0,0,0,0,0,153600000,Queensland;New South Wales,2013
Chemical,21/08/1991,22/08/1991,0,0,0,0,21300000,0,0,0,0,0,0,0,0,0,0,0,0,0,0,0,0,0,0,0,0,0,0,0,0,Victoria,1991
Epidemic,24/03/2013,29/03/2013,0,0,180,0,0,0,0,0,0,0,0,0,0,0,0,0,0,0,0,0,0,0,0,0,0,0,0,0,0,Tasmania,2013
Complex Emergencies,29/03/2013,29/03/2013,0,0,0,3,0,0,0,0,0,0,0,0,0,0,0,0,0,0,0,0,0,0,0,0,0,0,0,0,0,Victoria,2013
Tornado,21/03/2013,21/03/2013,0,0,24,0,0,0,0,0,0,33,24,0,0,0,0,0,0,0,0,0,0,0,0,0,0,0,0,0,0,New South Wales;Victoria,2013
Epidemic,12/05/2013,19/05/2013,0,0,140,0,0,0,0,0,0,0,0,0,0,0,0,0,0,0,0,0,0,0,0,0,0,0,0,0,0,Australian Capital Territory,2013
Transport,13/08/1940,13/08/1940,0,0,0,10,0,0,0,0,0,0,0,0,0,0,0,0,0,1,0,0,0,0,0,0,0,0,0,0,0,Australian Capital Territory,1940
Transport,19/12/1943,19/12/1943,0,0,0,31,0,0,0,0,0,0,0,0,0,0,0,0,0,1,0,0,0,0,0,0,0,0,0,0,0,Queensland,1943
Tornado,26/01/2013,26/01/2013,0,0,20,0,0,0,0,0,0,0,0,0,0,0,0,0,0,0,0,0,0,0,0,0,0,0,0,0,0,Queensland,2013
Hail,10/11/1976,10/11/1976,0,0,10,0,40000000,0,0,0,0,0,0,0,0,0,0,0,0,0,0,0,0,0,0,0,0,0,0,0,0,New South Wales,1976
Flood,08/11/2005,08/11/2005,0,0,0,0,0,0,0,0,0,0,0,0,0,0,0,0,0,0,0,0,0,0,0,0,0,0,0,0,0,South Australia,2005
Environmental,27/12/2012,19/01/2013,0,0,240,0,0,0,0,0,0,0,0,0,0,0,0,0,0,0,0,0,0,0,0,0,0,0,0,0,0,Queensland;New South Wales;Victoria;South Australia;Western Australia,2012
Transport,16/10/2013,16/10/2013,0,0,0,49,0,0,0,0,0,0,0,0,0,0,0,0,0,1,0,0,0,0,0,0,0,0,0,0,0,Outside Australia,2013
Flood,01/03/1893,01/03/1893,0,0,0,8,0,0,0,0,0,0,0,0,0,0,0,0,0,0,0,0,0,0,0,0,0,0,0,0,0,New South Wales,1893
Industrial,17/03/1900,17/03/1900,0,0,0,5,0,0,0,0,0,0,0,0,0,0,0,0,0,0,0,0,0,0,0,0,0,0,0,0,0,New South Wales,1900
Industrial,20/04/1945,20/04/1945,0,0,2,3,0,0,0,0,0,0,0,0,0,0,0,0,0,0,0,0,0,0,0,0,0,0,0,0,0,New South Wales,1945
Environmental,22/10/2013,11/09/2013,0,0,228,0,0,0,0,0,0,0,0,0,0,0,0,0,0,0,0,0,0,0,0,0,0,0,0,0,0,New South Wales,2013
Shipwreck,21/10/1861,21/10/1861,0,0,0,6,0,0,0,0,0,0,0,0,0,0,0,0,0,0,0,0,0,1,0,0,0,0,0,0,0,South Australia,1861
Shipwreck,15/12/1876,15/12/1876,0,0,0,6,0,0,0,0,0,0,0,0,0,0,0,0,0,0,0,0,1,0,0,0,0,0,0,0,0,South Australia,1876
Shipwreck,16/07/2013,16/07/2013,0,0,0,4,0,0,0,0,0,0,0,0,0,0,0,0,0,0,0,0,0,0,0,0,0,0,0,0,0,Outside Australia,2013
Flood,01/01/1917,01/06/1917,0,0,0,5,0,0,0,0,0,0,0,0,0,0,0,0,0,0,0,0,0,0,0,0,0,0,0,0,0,Queensland,1917
Bushfire,13/10/2013,13/11/2013,0,0,0,2,183400000,0,0,0,200,0,0,0,0,0,0,0,0,0,0,0,0,0,0,0,0,0,0,0,0,New South Wales,2013
Bushfire,11/01/2014,14/01/2014,0,0,0,1,15000000,0,0,0,52,0,0,0,0,0,0,0,0,0,0,0,0,0,0,0,0,0,0,0,0,Western Australia,2014
Environmental,01/04/2012,19/02/2014,0,0,0,0,0,0,0,0,0,0,0,0,0,0,0,0,0,0,0,0,0,0,0,0,0,0,0,0,0,Queensland;New South Wales,2012
Bushfire,15/01/2014,21/01/2014,0,0,0,0,0,0,0,0,0,0,30,0,0,0,0,0,0,0,0,0,0,0,0,0,0,0,0,7000,0,Victoria,2014
Environmental,11/01/2014,21/01/2014,0,0,0,0,0,0,0,0,0,0,0,0,0,0,0,0,0,0,0,0,0,0,0,0,0,0,0,80,0,Queensland;New South Wales;Victoria;South Australia;Western Australia;Tasmania,2014
Flood,16/12/2010,20/12/2010,0,0,0,0,0,0,0,0,0,0,0,0,0,0,0,0,0,0,0,0,0,0,0,0,0,0,0,2000,0,Queensland,2010
Bushfire,09/02/2014,14/02/2014,0,0,3,0,0,0,0,29,40,0,0,0,0,0,0,0,0,0,0,0,0,0,0,0,100,0,0,10600,0,Victoria,2014
Complex Emergencies,09/02/2014,19/03/2014,0,0,0,0,0,0,0,0,0,0,0,0,0,0,0,0,0,0,0,0,0,0,0,0,0,0,0,0,0,Victoria,2014
Transport,22/03/2014,22/03/2014,0,0,0,5,0,0,0,0,0,0,0,0,0,0,0,0,0,1,0,0,0,0,0,0,0,0,0,0,0,Queensland,2014
